(kicad_pcb (version 4) (host pcbnew 4.0.5)

  (general
    (links 38)
    (no_connects 0)
    (area 147.924999 71.924999 184.075001 123.825001)
    (thickness 1.6)
    (drawings 6)
    (tracks 85)
    (zones 0)
    (modules 25)
    (nets 19)
  )

  (page A4)
  (layers
    (0 F.Cu signal)
    (31 B.Cu signal)
    (32 B.Adhes user)
    (33 F.Adhes user)
    (34 B.Paste user)
    (35 F.Paste user)
    (36 B.SilkS user)
    (37 F.SilkS user)
    (38 B.Mask user)
    (39 F.Mask user)
    (40 Dwgs.User user)
    (41 Cmts.User user)
    (42 Eco1.User user)
    (43 Eco2.User user)
    (44 Edge.Cuts user)
    (45 Margin user)
    (46 B.CrtYd user)
    (47 F.CrtYd user)
    (48 B.Fab user)
    (49 F.Fab user)
  )

  (setup
    (last_trace_width 0.4)
    (trace_clearance 0.3)
    (zone_clearance 0.25)
    (zone_45_only no)
    (trace_min 0.3)
    (segment_width 0.2)
    (edge_width 0.15)
    (via_size 1)
    (via_drill 0.5)
    (via_min_size 1)
    (via_min_drill 0.5)
    (uvia_size 1)
    (uvia_drill 0.5)
    (uvias_allowed no)
    (uvia_min_size 0.2)
    (uvia_min_drill 0.1)
    (pcb_text_width 0.3)
    (pcb_text_size 1.5 1.5)
    (mod_edge_width 0.15)
    (mod_text_size 1 1)
    (mod_text_width 0.15)
    (pad_size 1 3)
    (pad_drill 1)
    (pad_to_mask_clearance 0.2)
    (aux_axis_origin 148 123.75)
    (grid_origin 148 123.75)
    (visible_elements FFFFFF7F)
    (pcbplotparams
      (layerselection 0x01030_80000001)
      (usegerberextensions false)
      (excludeedgelayer true)
      (linewidth 0.100000)
      (plotframeref false)
      (viasonmask false)
      (mode 1)
      (useauxorigin false)
      (hpglpennumber 1)
      (hpglpenspeed 20)
      (hpglpendiameter 15)
      (hpglpenoverlay 2)
      (psnegative false)
      (psa4output false)
      (plotreference true)
      (plotvalue true)
      (plotinvisibletext false)
      (padsonsilk false)
      (subtractmaskfromsilk false)
      (outputformat 1)
      (mirror false)
      (drillshape 0)
      (scaleselection 1)
      (outputdirectory gerber/))
  )

  (net 0 "")
  (net 1 VAA)
  (net 2 GND)
  (net 3 "Net-(C2-Pad1)")
  (net 4 "Net-(C2-Pad2)")
  (net 5 "Net-(C3-Pad1)")
  (net 6 "Net-(C3-Pad2)")
  (net 7 "Net-(D1-Pad2)")
  (net 8 "Net-(IC1-Pad1)")
  (net 9 "Net-(IC1-Pad5)")
  (net 10 "Net-(IC1-Pad6)")
  (net 11 "Net-(IC1-Pad3)")
  (net 12 "Net-(IC1-Pad7)")
  (net 13 VCC)
  (net 14 "Net-(U1-Pad1)")
  (net 15 "Net-(U1-Pad5)")
  (net 16 /CHAIN_IN)
  (net 17 /OUTPUT)
  (net 18 "Net-(C6-Pad1)")

  (net_class Default "This is the default net class."
    (clearance 0.3)
    (trace_width 0.4)
    (via_dia 1)
    (via_drill 0.5)
    (uvia_dia 1)
    (uvia_drill 0.5)
    (add_net /CHAIN_IN)
    (add_net /OUTPUT)
    (add_net GND)
    (add_net "Net-(C2-Pad1)")
    (add_net "Net-(C2-Pad2)")
    (add_net "Net-(C3-Pad1)")
    (add_net "Net-(C3-Pad2)")
    (add_net "Net-(C6-Pad1)")
    (add_net "Net-(D1-Pad2)")
    (add_net "Net-(IC1-Pad1)")
    (add_net "Net-(IC1-Pad3)")
    (add_net "Net-(IC1-Pad5)")
    (add_net "Net-(IC1-Pad6)")
    (add_net "Net-(IC1-Pad7)")
    (add_net "Net-(U1-Pad1)")
    (add_net "Net-(U1-Pad5)")
    (add_net VAA)
    (add_net VCC)
  )

  (module Connectors:PINHEAD1-3 (layer F.Cu) (tedit 58AA16EC) (tstamp 58A9FAD9)
    (at 178 113 270)
    (path /58A9DB97)
    (fp_text reference P2 (at 2.59 -3.8 270) (layer F.SilkS)
      (effects (font (size 1 1) (thickness 0.15)))
    )
    (fp_text value CONN_01X03 (at 2.54 3.81 270) (layer F.Fab)
      (effects (font (size 1 1) (thickness 0.15)))
    )
    (fp_line (start -1.27 -3.17) (end -1.27 3.17) (layer F.SilkS) (width 0.12))
    (fp_line (start 6.35 -3.17) (end 6.35 3.17) (layer F.SilkS) (width 0.12))
    (fp_line (start 6.35 -1.27) (end -1.27 -1.27) (layer F.SilkS) (width 0.12))
    (fp_line (start -1.27 -3.17) (end 6.35 -3.17) (layer F.SilkS) (width 0.12))
    (fp_line (start 6.35 3.17) (end -1.27 3.17) (layer F.SilkS) (width 0.12))
    (fp_line (start -1.52 -3.42) (end 6.6 -3.42) (layer F.CrtYd) (width 0.05))
    (fp_line (start -1.52 -3.42) (end -1.52 3.42) (layer F.CrtYd) (width 0.05))
    (fp_line (start 6.6 3.42) (end 6.6 -3.42) (layer F.CrtYd) (width 0.05))
    (fp_line (start 6.6 3.42) (end -1.52 3.42) (layer F.CrtYd) (width 0.05))
    (pad 1 thru_hole oval (at 0 0 270) (size 1.51 3.01) (drill 1) (layers *.Cu *.Mask)
      (net 2 GND))
    (pad 2 thru_hole oval (at 2.54 0 270) (size 1.51 3.01) (drill 1) (layers *.Cu *.Mask)
      (net 13 VCC))
    (pad 3 thru_hole oval (at 5.08 0 270) (size 1.51 3.01) (drill 1) (layers *.Cu *.Mask)
      (net 17 /OUTPUT))
  )

  (module Connectors:1pin (layer F.Cu) (tedit 58B565B3) (tstamp 58B555EC)
    (at 179.5 76)
    (descr "module 1 pin (ou trou mecanique de percage)")
    (tags DEV)
    (fp_text reference REF** (at 0 -3.048) (layer F.SilkS)
      (effects (font (size 1 1) (thickness 0.15)))
    )
    (fp_text value 1pin (at 0 3) (layer F.Fab)
      (effects (font (size 1 1) (thickness 0.15)))
    )
    (fp_circle (center 0 0) (end 2 0.8) (layer F.Fab) (width 0.1))
    (fp_circle (center 0 0) (end 2.6 0) (layer F.CrtYd) (width 0.05))
    (fp_circle (center 0 0) (end 0 -2.286) (layer F.SilkS) (width 0.12))
    (pad 1 thru_hole circle (at 0 0) (size 4 4) (drill 4) (layers *.Cu *.Mask))
  )

  (module Connectors:1pin (layer F.Cu) (tedit 58B565AC) (tstamp 58B5556B)
    (at 152 76)
    (descr "module 1 pin (ou trou mecanique de percage)")
    (tags DEV)
    (fp_text reference REF** (at 0 -3.048) (layer F.SilkS)
      (effects (font (size 1 1) (thickness 0.15)))
    )
    (fp_text value 1pin (at 0 3) (layer F.Fab)
      (effects (font (size 1 1) (thickness 0.15)))
    )
    (fp_circle (center 0 0) (end 2 0.8) (layer F.Fab) (width 0.1))
    (fp_circle (center 0 0) (end 2.6 0) (layer F.CrtYd) (width 0.05))
    (fp_circle (center 0 0) (end 0 -2.286) (layer F.SilkS) (width 0.12))
    (pad 1 thru_hole circle (at 0 0) (size 4 4) (drill 4) (layers *.Cu *.Mask))
  )

  (module Resistors_THT:R_Axial_DIN0207_L6.3mm_D2.5mm_P10.16mm_Horizontal (layer F.Cu) (tedit 58AD992A) (tstamp 58AA9B34)
    (at 165.91 99.33)
    (descr "Resistor, Axial_DIN0207 series, Axial, Horizontal, pin pitch=10.16mm, 0.25W = 1/4W, length*diameter=6.3*2.5mm^2, http://cdn-reichelt.de/documents/datenblatt/B400/1_4W%23YAG.pdf")
    (tags "Resistor Axial_DIN0207 series Axial Horizontal pin pitch 10.16mm 0.25W = 1/4W length 6.3mm diameter 2.5mm")
    (path /58AA9FCD)
    (fp_text reference R9 (at 6.59 0.17) (layer F.SilkS)
      (effects (font (size 1 1) (thickness 0.15)))
    )
    (fp_text value 0R (at 3.34 0.17) (layer F.Fab)
      (effects (font (size 1 1) (thickness 0.15)))
    )
    (fp_line (start 1.93 -1.25) (end 1.93 1.25) (layer F.Fab) (width 0.1))
    (fp_line (start 1.93 1.25) (end 8.23 1.25) (layer F.Fab) (width 0.1))
    (fp_line (start 8.23 1.25) (end 8.23 -1.25) (layer F.Fab) (width 0.1))
    (fp_line (start 8.23 -1.25) (end 1.93 -1.25) (layer F.Fab) (width 0.1))
    (fp_line (start 0 0) (end 1.93 0) (layer F.Fab) (width 0.1))
    (fp_line (start 10.16 0) (end 8.23 0) (layer F.Fab) (width 0.1))
    (fp_line (start 1.87 -1.31) (end 1.87 1.31) (layer F.SilkS) (width 0.12))
    (fp_line (start 1.87 1.31) (end 8.29 1.31) (layer F.SilkS) (width 0.12))
    (fp_line (start 8.29 1.31) (end 8.29 -1.31) (layer F.SilkS) (width 0.12))
    (fp_line (start 8.29 -1.31) (end 1.87 -1.31) (layer F.SilkS) (width 0.12))
    (fp_line (start 0.98 0) (end 1.87 0) (layer F.SilkS) (width 0.12))
    (fp_line (start 9.18 0) (end 8.29 0) (layer F.SilkS) (width 0.12))
    (fp_line (start -1.05 -1.6) (end -1.05 1.6) (layer F.CrtYd) (width 0.05))
    (fp_line (start -1.05 1.6) (end 11.25 1.6) (layer F.CrtYd) (width 0.05))
    (fp_line (start 11.25 1.6) (end 11.25 -1.6) (layer F.CrtYd) (width 0.05))
    (fp_line (start 11.25 -1.6) (end -1.05 -1.6) (layer F.CrtYd) (width 0.05))
    (pad 1 thru_hole circle (at 0 0) (size 1.6 1.6) (drill 0.8) (layers *.Cu *.Mask)
      (net 1 VAA))
    (pad 2 thru_hole oval (at 10.16 0) (size 1.6 1.6) (drill 0.8) (layers *.Cu *.Mask)
      (net 18 "Net-(C6-Pad1)"))
    (model Resistors_THT.3dshapes/R_Axial_DIN0207_L6.3mm_D2.5mm_P10.16mm_Horizontal.wrl
      (at (xyz 0 0 0))
      (scale (xyz 0.393701 0.393701 0.393701))
      (rotate (xyz 0 0 0))
    )
  )

  (module TO_SOT_Packages_THT:TO-39-3 (layer F.Cu) (tedit 58B5656A) (tstamp 58A9FAEE)
    (at 168.465 84.09 180)
    (descr TO-39-3)
    (tags TO-39-3)
    (path /58A9DEC7)
    (fp_text reference PIR1 (at 2.54 -5.82 180) (layer F.SilkS)
      (effects (font (size 1 1) (thickness 0.15)))
    )
    (fp_text value LHI878-RF (at 2.54 5.82 180) (layer F.Fab)
      (effects (font (size 1 1) (thickness 0.15)))
    )
    (fp_arc (start 2.54 0) (end -0.465408 -3.61352) (angle 349.5) (layer F.Fab) (width 0.1))
    (fp_arc (start 2.54 0) (end -0.457084 -3.774902) (angle 346.9) (layer F.SilkS) (width 0.12))
    (fp_circle (center 2.54 0) (end 6.79 0) (layer F.Fab) (width 0.1))
    (fp_line (start -0.465408 -3.61352) (end -1.27151 -4.419621) (layer F.Fab) (width 0.1))
    (fp_line (start -1.27151 -4.419621) (end -1.879621 -3.81151) (layer F.Fab) (width 0.1))
    (fp_line (start -1.879621 -3.81151) (end -1.07352 -3.005408) (layer F.Fab) (width 0.1))
    (fp_line (start -0.457084 -3.774902) (end -1.348039 -4.665856) (layer F.SilkS) (width 0.12))
    (fp_line (start -1.348039 -4.665856) (end -2.125856 -3.888039) (layer F.SilkS) (width 0.12))
    (fp_line (start -2.125856 -3.888039) (end -1.234902 -2.997084) (layer F.SilkS) (width 0.12))
    (fp_line (start -2.41 -4.95) (end -2.41 4.95) (layer F.CrtYd) (width 0.05))
    (fp_line (start -2.41 4.95) (end 7.49 4.95) (layer F.CrtYd) (width 0.05))
    (fp_line (start 7.49 4.95) (end 7.49 -4.95) (layer F.CrtYd) (width 0.05))
    (fp_line (start 7.49 -4.95) (end -2.41 -4.95) (layer F.CrtYd) (width 0.05))
    (fp_text user %R (at 2.54 -5.82 180) (layer F.Fab)
      (effects (font (size 1 1) (thickness 0.15)))
    )
    (pad 1 thru_hole oval (at 0 0 180) (size 1.6 1.2) (drill 0.8) (layers *.Cu *.Mask)
      (net 18 "Net-(C6-Pad1)"))
    (pad 2 thru_hole oval (at 2.54 2.54 180) (size 1.2 1.2) (drill 0.8) (layers *.Cu *.Mask)
      (net 4 "Net-(C2-Pad2)"))
    (pad 3 thru_hole oval (at 5.08 0 180) (size 1.2 1.2) (drill 0.8) (layers *.Cu *.Mask)
      (net 2 GND))
    (model TO_SOT_Packages_THT.3dshapes/TO-39-3.wrl
      (at (xyz 0 0 0))
      (scale (xyz 0.393701 0.393701 0.393701))
      (rotate (xyz 0 0 0))
    )
  )

  (module Housings_DIP:DIP-8_W7.62mm (layer F.Cu) (tedit 58AD98D8) (tstamp 58A9FB39)
    (at 163.37 109.49 90)
    (descr "8-lead dip package, row spacing 7.62 mm (300 mils)")
    (tags "DIL DIP PDIP 2.54mm 7.62mm 300mil")
    (path /58A9D8B6)
    (fp_text reference U1 (at 4.74 4.13 180) (layer F.SilkS)
      (effects (font (size 1 1) (thickness 0.15)))
    )
    (fp_text value LM741 (at 2.49 3.38 180) (layer F.Fab)
      (effects (font (size 1 1) (thickness 0.15)))
    )
    (fp_arc (start 3.81 -1.39) (end 2.81 -1.39) (angle -180) (layer F.SilkS) (width 0.12))
    (fp_line (start 1.635 -1.27) (end 6.985 -1.27) (layer F.Fab) (width 0.1))
    (fp_line (start 6.985 -1.27) (end 6.985 8.89) (layer F.Fab) (width 0.1))
    (fp_line (start 6.985 8.89) (end 0.635 8.89) (layer F.Fab) (width 0.1))
    (fp_line (start 0.635 8.89) (end 0.635 -0.27) (layer F.Fab) (width 0.1))
    (fp_line (start 0.635 -0.27) (end 1.635 -1.27) (layer F.Fab) (width 0.1))
    (fp_line (start 2.81 -1.39) (end 1.04 -1.39) (layer F.SilkS) (width 0.12))
    (fp_line (start 1.04 -1.39) (end 1.04 9.01) (layer F.SilkS) (width 0.12))
    (fp_line (start 1.04 9.01) (end 6.58 9.01) (layer F.SilkS) (width 0.12))
    (fp_line (start 6.58 9.01) (end 6.58 -1.39) (layer F.SilkS) (width 0.12))
    (fp_line (start 6.58 -1.39) (end 4.81 -1.39) (layer F.SilkS) (width 0.12))
    (fp_line (start -1.1 -1.6) (end -1.1 9.2) (layer F.CrtYd) (width 0.05))
    (fp_line (start -1.1 9.2) (end 8.7 9.2) (layer F.CrtYd) (width 0.05))
    (fp_line (start 8.7 9.2) (end 8.7 -1.6) (layer F.CrtYd) (width 0.05))
    (fp_line (start 8.7 -1.6) (end -1.1 -1.6) (layer F.CrtYd) (width 0.05))
    (pad 1 thru_hole rect (at 0 0 90) (size 1.6 1.6) (drill 0.8) (layers *.Cu *.Mask)
      (net 14 "Net-(U1-Pad1)"))
    (pad 5 thru_hole oval (at 7.62 7.62 90) (size 1.6 1.6) (drill 0.8) (layers *.Cu *.Mask)
      (net 15 "Net-(U1-Pad5)"))
    (pad 2 thru_hole oval (at 0 2.54 90) (size 1.6 1.6) (drill 0.8) (layers *.Cu *.Mask)
      (net 6 "Net-(C3-Pad2)"))
    (pad 6 thru_hole oval (at 7.62 5.08 90) (size 1.6 1.6) (drill 0.8) (layers *.Cu *.Mask)
      (net 5 "Net-(C3-Pad1)"))
    (pad 3 thru_hole oval (at 0 5.08 90) (size 1.6 1.6) (drill 0.8) (layers *.Cu *.Mask)
      (net 3 "Net-(C2-Pad1)"))
    (pad 7 thru_hole oval (at 7.62 2.54 90) (size 1.6 1.6) (drill 0.8) (layers *.Cu *.Mask)
      (net 1 VAA))
    (pad 4 thru_hole oval (at 0 7.62 90) (size 1.6 1.6) (drill 0.8) (layers *.Cu *.Mask)
      (net 2 GND))
    (pad 8 thru_hole oval (at 7.62 0 90) (size 1.6 1.6) (drill 0.8) (layers *.Cu *.Mask))
    (model Housings_DIP.3dshapes/DIP-8_W7.62mm.wrl
      (at (xyz 0 0 0))
      (scale (xyz 1 1 1))
      (rotate (xyz 0 0 0))
    )
  )

  (module LEDs:LED_D5.0mm (layer F.Cu) (tedit 58B5650D) (tstamp 58A9FA9E)
    (at 150.5 117)
    (descr "LED, diameter 5.0mm, 2 pins, http://cdn-reichelt.de/documents/datenblatt/A500/LL-504BC2E-009.pdf")
    (tags "LED diameter 5.0mm 2 pins")
    (path /58A9EA67)
    (fp_text reference D1 (at 1.27 -3.96) (layer F.SilkS)
      (effects (font (size 1 1) (thickness 0.15)))
    )
    (fp_text value LED (at 1.27 3.96) (layer F.Fab)
      (effects (font (size 1 1) (thickness 0.15)))
    )
    (fp_arc (start 1.27 0) (end -1.23 -1.469694) (angle 299.1) (layer F.Fab) (width 0.1))
    (fp_arc (start 1.27 0) (end -1.29 -1.54483) (angle 148.9) (layer F.SilkS) (width 0.12))
    (fp_arc (start 1.27 0) (end -1.29 1.54483) (angle -148.9) (layer F.SilkS) (width 0.12))
    (fp_circle (center 1.27 0) (end 3.77 0) (layer F.Fab) (width 0.1))
    (fp_circle (center 1.27 0) (end 3.77 0) (layer F.SilkS) (width 0.12))
    (fp_line (start -1.23 -1.469694) (end -1.23 1.469694) (layer F.Fab) (width 0.1))
    (fp_line (start -1.29 -1.545) (end -1.29 1.545) (layer F.SilkS) (width 0.12))
    (fp_line (start -1.95 -3.25) (end -1.95 3.25) (layer F.CrtYd) (width 0.05))
    (fp_line (start -1.95 3.25) (end 4.5 3.25) (layer F.CrtYd) (width 0.05))
    (fp_line (start 4.5 3.25) (end 4.5 -3.25) (layer F.CrtYd) (width 0.05))
    (fp_line (start 4.5 -3.25) (end -1.95 -3.25) (layer F.CrtYd) (width 0.05))
    (pad 1 thru_hole rect (at 0 0) (size 1.8 1.8) (drill 0.8) (layers *.Cu *.Mask)
      (net 2 GND))
    (pad 2 thru_hole circle (at 2.54 0) (size 1.8 1.8) (drill 0.8) (layers *.Cu *.Mask)
      (net 7 "Net-(D1-Pad2)"))
    (model LEDs.3dshapes/LED_D5.0mm.wrl
      (at (xyz 0 0 0))
      (scale (xyz 0.393701 0.393701 0.393701))
      (rotate (xyz 0 0 0))
    )
  )

  (module Housings_DIP:DIP-8_W7.62mm (layer F.Cu) (tedit 58AD98D2) (tstamp 58A9FAB9)
    (at 158.925 101.87 270)
    (descr "8-lead dip package, row spacing 7.62 mm (300 mils)")
    (tags "DIL DIP PDIP 2.54mm 7.62mm 300mil")
    (path /58A9E380)
    (fp_text reference IC1 (at 3.38 3.675 360) (layer F.SilkS)
      (effects (font (size 1 1) (thickness 0.15)))
    )
    (fp_text value ATTINY85-P (at 5.63 3.925 360) (layer F.Fab)
      (effects (font (size 1 1) (thickness 0.15)))
    )
    (fp_arc (start 3.81 -1.39) (end 2.81 -1.39) (angle -180) (layer F.SilkS) (width 0.12))
    (fp_line (start 1.635 -1.27) (end 6.985 -1.27) (layer F.Fab) (width 0.1))
    (fp_line (start 6.985 -1.27) (end 6.985 8.89) (layer F.Fab) (width 0.1))
    (fp_line (start 6.985 8.89) (end 0.635 8.89) (layer F.Fab) (width 0.1))
    (fp_line (start 0.635 8.89) (end 0.635 -0.27) (layer F.Fab) (width 0.1))
    (fp_line (start 0.635 -0.27) (end 1.635 -1.27) (layer F.Fab) (width 0.1))
    (fp_line (start 2.81 -1.39) (end 1.04 -1.39) (layer F.SilkS) (width 0.12))
    (fp_line (start 1.04 -1.39) (end 1.04 9.01) (layer F.SilkS) (width 0.12))
    (fp_line (start 1.04 9.01) (end 6.58 9.01) (layer F.SilkS) (width 0.12))
    (fp_line (start 6.58 9.01) (end 6.58 -1.39) (layer F.SilkS) (width 0.12))
    (fp_line (start 6.58 -1.39) (end 4.81 -1.39) (layer F.SilkS) (width 0.12))
    (fp_line (start -1.1 -1.6) (end -1.1 9.2) (layer F.CrtYd) (width 0.05))
    (fp_line (start -1.1 9.2) (end 8.7 9.2) (layer F.CrtYd) (width 0.05))
    (fp_line (start 8.7 9.2) (end 8.7 -1.6) (layer F.CrtYd) (width 0.05))
    (fp_line (start 8.7 -1.6) (end -1.1 -1.6) (layer F.CrtYd) (width 0.05))
    (pad 1 thru_hole rect (at 0 0 270) (size 1.6 1.6) (drill 0.8) (layers *.Cu *.Mask)
      (net 8 "Net-(IC1-Pad1)"))
    (pad 5 thru_hole oval (at 7.62 7.62 270) (size 1.6 1.6) (drill 0.8) (layers *.Cu *.Mask)
      (net 9 "Net-(IC1-Pad5)"))
    (pad 2 thru_hole oval (at 0 2.54 270) (size 1.6 1.6) (drill 0.8) (layers *.Cu *.Mask)
      (net 5 "Net-(C3-Pad1)"))
    (pad 6 thru_hole oval (at 7.62 5.08 270) (size 1.6 1.6) (drill 0.8) (layers *.Cu *.Mask)
      (net 10 "Net-(IC1-Pad6)"))
    (pad 3 thru_hole oval (at 0 5.08 270) (size 1.6 1.6) (drill 0.8) (layers *.Cu *.Mask)
      (net 11 "Net-(IC1-Pad3)"))
    (pad 7 thru_hole oval (at 7.62 2.54 270) (size 1.6 1.6) (drill 0.8) (layers *.Cu *.Mask)
      (net 12 "Net-(IC1-Pad7)"))
    (pad 4 thru_hole oval (at 0 7.62 270) (size 1.6 1.6) (drill 0.8) (layers *.Cu *.Mask)
      (net 2 GND))
    (pad 8 thru_hole oval (at 7.62 0 270) (size 1.6 1.6) (drill 0.8) (layers *.Cu *.Mask)
      (net 13 VCC))
    (model Housings_DIP.3dshapes/DIP-8_W7.62mm.wrl
      (at (xyz 0 0 0))
      (scale (xyz 1 1 1))
      (rotate (xyz 0 0 0))
    )
  )

  (module Connectors:PINHEAD1-3 (layer F.Cu) (tedit 0) (tstamp 58A9FAC9)
    (at 178 103.5 270)
    (path /58A9DAB2)
    (fp_text reference P1 (at 2.59 -3.8 270) (layer F.SilkS)
      (effects (font (size 1 1) (thickness 0.15)))
    )
    (fp_text value CONN_01X03 (at 2.54 3.81 270) (layer F.Fab)
      (effects (font (size 1 1) (thickness 0.15)))
    )
    (fp_line (start -1.27 -3.17) (end -1.27 3.17) (layer F.SilkS) (width 0.12))
    (fp_line (start 6.35 -3.17) (end 6.35 3.17) (layer F.SilkS) (width 0.12))
    (fp_line (start 6.35 -1.27) (end -1.27 -1.27) (layer F.SilkS) (width 0.12))
    (fp_line (start -1.27 -3.17) (end 6.35 -3.17) (layer F.SilkS) (width 0.12))
    (fp_line (start 6.35 3.17) (end -1.27 3.17) (layer F.SilkS) (width 0.12))
    (fp_line (start -1.52 -3.42) (end 6.6 -3.42) (layer F.CrtYd) (width 0.05))
    (fp_line (start -1.52 -3.42) (end -1.52 3.42) (layer F.CrtYd) (width 0.05))
    (fp_line (start 6.6 3.42) (end 6.6 -3.42) (layer F.CrtYd) (width 0.05))
    (fp_line (start 6.6 3.42) (end -1.52 3.42) (layer F.CrtYd) (width 0.05))
    (pad 1 thru_hole oval (at 0 0 270) (size 1.51 3.01) (drill 1) (layers *.Cu *.Mask)
      (net 2 GND))
    (pad 2 thru_hole oval (at 2.54 0 270) (size 1.51 3.01) (drill 1) (layers *.Cu *.Mask)
      (net 13 VCC))
    (pad 3 thru_hole oval (at 5.08 0 270) (size 1.51 3.01) (drill 1) (layers *.Cu *.Mask)
      (net 16 /CHAIN_IN))
  )

  (module Resistors_THT:R_Axial_DIN0207_L6.3mm_D2.5mm_P2.54mm_Vertical (layer F.Cu) (tedit 5874F706) (tstamp 58A9FAFA)
    (at 163.37 112.284)
    (descr "Resistor, Axial_DIN0207 series, Axial, Vertical, pin pitch=2.54mm, 0.25W = 1/4W, length*diameter=6.3*2.5mm^2, http://cdn-reichelt.de/documents/datenblatt/B400/1_4W%23YAG.pdf")
    (tags "Resistor Axial_DIN0207 series Axial Vertical pin pitch 2.54mm 0.25W = 1/4W length 6.3mm diameter 2.5mm")
    (path /58AA0350)
    (fp_text reference R2 (at 1.27 -2.31) (layer F.SilkS)
      (effects (font (size 1 1) (thickness 0.15)))
    )
    (fp_text value 3M (at 1.27 2.31) (layer F.Fab)
      (effects (font (size 1 1) (thickness 0.15)))
    )
    (fp_circle (center 0 0) (end 1.25 0) (layer F.Fab) (width 0.1))
    (fp_circle (center 0 0) (end 1.31 0) (layer F.SilkS) (width 0.12))
    (fp_line (start 0 0) (end 2.54 0) (layer F.Fab) (width 0.1))
    (fp_line (start 1.31 0) (end 1.44 0) (layer F.SilkS) (width 0.12))
    (fp_line (start -1.6 -1.6) (end -1.6 1.6) (layer F.CrtYd) (width 0.05))
    (fp_line (start -1.6 1.6) (end 3.65 1.6) (layer F.CrtYd) (width 0.05))
    (fp_line (start 3.65 1.6) (end 3.65 -1.6) (layer F.CrtYd) (width 0.05))
    (fp_line (start 3.65 -1.6) (end -1.6 -1.6) (layer F.CrtYd) (width 0.05))
    (pad 1 thru_hole circle (at 0 0) (size 1.6 1.6) (drill 0.8) (layers *.Cu *.Mask)
      (net 1 VAA))
    (pad 2 thru_hole oval (at 2.54 0) (size 1.6 1.6) (drill 0.8) (layers *.Cu *.Mask)
      (net 3 "Net-(C2-Pad1)"))
    (model Resistors_THT.3dshapes/R_Axial_DIN0207_L6.3mm_D2.5mm_P2.54mm_Vertical.wrl
      (at (xyz 0 0 0))
      (scale (xyz 0.393701 0.393701 0.393701))
      (rotate (xyz 0 0 0))
    )
  )

  (module Resistors_THT:R_Axial_DIN0207_L6.3mm_D2.5mm_P2.54mm_Vertical (layer F.Cu) (tedit 5874F706) (tstamp 58A9FB00)
    (at 168.704 112.284)
    (descr "Resistor, Axial_DIN0207 series, Axial, Vertical, pin pitch=2.54mm, 0.25W = 1/4W, length*diameter=6.3*2.5mm^2, http://cdn-reichelt.de/documents/datenblatt/B400/1_4W%23YAG.pdf")
    (tags "Resistor Axial_DIN0207 series Axial Vertical pin pitch 2.54mm 0.25W = 1/4W length 6.3mm diameter 2.5mm")
    (path /58AA02F3)
    (fp_text reference R3 (at 1.27 -2.31) (layer F.SilkS)
      (effects (font (size 1 1) (thickness 0.15)))
    )
    (fp_text value 3M (at 1.27 2.31) (layer F.Fab)
      (effects (font (size 1 1) (thickness 0.15)))
    )
    (fp_circle (center 0 0) (end 1.25 0) (layer F.Fab) (width 0.1))
    (fp_circle (center 0 0) (end 1.31 0) (layer F.SilkS) (width 0.12))
    (fp_line (start 0 0) (end 2.54 0) (layer F.Fab) (width 0.1))
    (fp_line (start 1.31 0) (end 1.44 0) (layer F.SilkS) (width 0.12))
    (fp_line (start -1.6 -1.6) (end -1.6 1.6) (layer F.CrtYd) (width 0.05))
    (fp_line (start -1.6 1.6) (end 3.65 1.6) (layer F.CrtYd) (width 0.05))
    (fp_line (start 3.65 1.6) (end 3.65 -1.6) (layer F.CrtYd) (width 0.05))
    (fp_line (start 3.65 -1.6) (end -1.6 -1.6) (layer F.CrtYd) (width 0.05))
    (pad 1 thru_hole circle (at 0 0) (size 1.6 1.6) (drill 0.8) (layers *.Cu *.Mask)
      (net 3 "Net-(C2-Pad1)"))
    (pad 2 thru_hole oval (at 2.54 0) (size 1.6 1.6) (drill 0.8) (layers *.Cu *.Mask)
      (net 2 GND))
    (model Resistors_THT.3dshapes/R_Axial_DIN0207_L6.3mm_D2.5mm_P2.54mm_Vertical.wrl
      (at (xyz 0 0 0))
      (scale (xyz 0.393701 0.393701 0.393701))
      (rotate (xyz 0 0 0))
    )
  )

  (module Resistors_THT:R_Axial_DIN0207_L6.3mm_D2.5mm_P2.54mm_Vertical (layer F.Cu) (tedit 58AD98C2) (tstamp 58A9FB18)
    (at 160.83 98.695 90)
    (descr "Resistor, Axial_DIN0207 series, Axial, Vertical, pin pitch=2.54mm, 0.25W = 1/4W, length*diameter=6.3*2.5mm^2, http://cdn-reichelt.de/documents/datenblatt/B400/1_4W%23YAG.pdf")
    (tags "Resistor Axial_DIN0207 series Axial Vertical pin pitch 2.54mm 0.25W = 1/4W length 6.3mm diameter 2.5mm")
    (path /58A9FF92)
    (fp_text reference R7 (at -0.805 2.42 90) (layer F.SilkS)
      (effects (font (size 1 1) (thickness 0.15)))
    )
    (fp_text value 3M (at 1.27 2.31 90) (layer F.Fab)
      (effects (font (size 1 1) (thickness 0.15)))
    )
    (fp_circle (center 0 0) (end 1.25 0) (layer F.Fab) (width 0.1))
    (fp_circle (center 0 0) (end 1.31 0) (layer F.SilkS) (width 0.12))
    (fp_line (start 0 0) (end 2.54 0) (layer F.Fab) (width 0.1))
    (fp_line (start 1.31 0) (end 1.44 0) (layer F.SilkS) (width 0.12))
    (fp_line (start -1.6 -1.6) (end -1.6 1.6) (layer F.CrtYd) (width 0.05))
    (fp_line (start -1.6 1.6) (end 3.65 1.6) (layer F.CrtYd) (width 0.05))
    (fp_line (start 3.65 1.6) (end 3.65 -1.6) (layer F.CrtYd) (width 0.05))
    (fp_line (start 3.65 -1.6) (end -1.6 -1.6) (layer F.CrtYd) (width 0.05))
    (pad 1 thru_hole circle (at 0 0 90) (size 1.6 1.6) (drill 0.8) (layers *.Cu *.Mask)
      (net 5 "Net-(C3-Pad1)"))
    (pad 2 thru_hole oval (at 2.54 0 90) (size 1.6 1.6) (drill 0.8) (layers *.Cu *.Mask)
      (net 6 "Net-(C3-Pad2)"))
    (model Resistors_THT.3dshapes/R_Axial_DIN0207_L6.3mm_D2.5mm_P2.54mm_Vertical.wrl
      (at (xyz 0 0 0))
      (scale (xyz 0.393701 0.393701 0.393701))
      (rotate (xyz 0 0 0))
    )
  )

  (module Resistors_THT:R_Axial_DIN0207_L6.3mm_D2.5mm_P2.54mm_Vertical (layer F.Cu) (tedit 58AD98CA) (tstamp 58A9FB1E)
    (at 152.5 92)
    (descr "Resistor, Axial_DIN0207 series, Axial, Vertical, pin pitch=2.54mm, 0.25W = 1/4W, length*diameter=6.3*2.5mm^2, http://cdn-reichelt.de/documents/datenblatt/B400/1_4W%23YAG.pdf")
    (tags "Resistor Axial_DIN0207 series Axial Vertical pin pitch 2.54mm 0.25W = 1/4W length 6.3mm diameter 2.5mm")
    (path /58AA3376)
    (fp_text reference R8 (at 1.27 -2.31) (layer F.SilkS)
      (effects (font (size 1 1) (thickness 0.15)))
    )
    (fp_text value 20k (at 4 -2.25) (layer F.Fab)
      (effects (font (size 1 1) (thickness 0.15)))
    )
    (fp_circle (center 0 0) (end 1.25 0) (layer F.Fab) (width 0.1))
    (fp_circle (center 0 0) (end 1.31 0) (layer F.SilkS) (width 0.12))
    (fp_line (start 0 0) (end 2.54 0) (layer F.Fab) (width 0.1))
    (fp_line (start 1.31 0) (end 1.44 0) (layer F.SilkS) (width 0.12))
    (fp_line (start -1.6 -1.6) (end -1.6 1.6) (layer F.CrtYd) (width 0.05))
    (fp_line (start -1.6 1.6) (end 3.65 1.6) (layer F.CrtYd) (width 0.05))
    (fp_line (start 3.65 1.6) (end 3.65 -1.6) (layer F.CrtYd) (width 0.05))
    (fp_line (start 3.65 -1.6) (end -1.6 -1.6) (layer F.CrtYd) (width 0.05))
    (pad 1 thru_hole circle (at 0 0) (size 1.6 1.6) (drill 0.8) (layers *.Cu *.Mask)
      (net 2 GND))
    (pad 2 thru_hole oval (at 2.54 0) (size 1.6 1.6) (drill 0.8) (layers *.Cu *.Mask)
      (net 4 "Net-(C2-Pad2)"))
    (model Resistors_THT.3dshapes/R_Axial_DIN0207_L6.3mm_D2.5mm_P2.54mm_Vertical.wrl
      (at (xyz 0 0 0))
      (scale (xyz 0.393701 0.393701 0.393701))
      (rotate (xyz 0 0 0))
    )
  )

  (module Capacitors_THT:C_Disc_D3.0mm_W1.6mm_P2.50mm (layer F.Cu) (tedit 58AD991D) (tstamp 58AA0E05)
    (at 166.5 115)
    (descr "C, Disc series, Radial, pin pitch=2.50mm, , diameter*width=3.0*1.6mm^2, Capacitor, http://www.vishay.com/docs/45233/krseries.pdf")
    (tags "C Disc series Radial pin pitch 2.50mm  diameter 3.0mm width 1.6mm Capacitor")
    (path /58A9F1A1)
    (fp_text reference C1 (at 4.915 0.005) (layer F.SilkS)
      (effects (font (size 1 1) (thickness 0.15)))
    )
    (fp_text value 33u (at 1.25 1.86) (layer F.Fab)
      (effects (font (size 1 1) (thickness 0.15)))
    )
    (fp_line (start -0.25 -0.8) (end -0.25 0.8) (layer F.Fab) (width 0.1))
    (fp_line (start -0.25 0.8) (end 2.75 0.8) (layer F.Fab) (width 0.1))
    (fp_line (start 2.75 0.8) (end 2.75 -0.8) (layer F.Fab) (width 0.1))
    (fp_line (start 2.75 -0.8) (end -0.25 -0.8) (layer F.Fab) (width 0.1))
    (fp_line (start 0.663 -0.861) (end 1.837 -0.861) (layer F.SilkS) (width 0.12))
    (fp_line (start 0.663 0.861) (end 1.837 0.861) (layer F.SilkS) (width 0.12))
    (fp_line (start -1.05 -1.15) (end -1.05 1.15) (layer F.CrtYd) (width 0.05))
    (fp_line (start -1.05 1.15) (end 3.55 1.15) (layer F.CrtYd) (width 0.05))
    (fp_line (start 3.55 1.15) (end 3.55 -1.15) (layer F.CrtYd) (width 0.05))
    (fp_line (start 3.55 -1.15) (end -1.05 -1.15) (layer F.CrtYd) (width 0.05))
    (pad 1 thru_hole circle (at 0 0) (size 1.6 1.6) (drill 0.8) (layers *.Cu *.Mask)
      (net 1 VAA))
    (pad 2 thru_hole circle (at 2.5 0) (size 1.6 1.6) (drill 0.8) (layers *.Cu *.Mask)
      (net 2 GND))
    (model Capacitors_THT.3dshapes/C_Disc_D3.0mm_W1.6mm_P2.50mm.wrl
      (at (xyz 0 0 0))
      (scale (xyz 0.393701 0.393701 0.393701))
      (rotate (xyz 0 0 0))
    )
  )

  (module Capacitors_THT:C_Disc_D3.0mm_W1.6mm_P2.50mm (layer F.Cu) (tedit 58AD995A) (tstamp 58AA0E0A)
    (at 157.655 99.33 90)
    (descr "C, Disc series, Radial, pin pitch=2.50mm, , diameter*width=3.0*1.6mm^2, Capacitor, http://www.vishay.com/docs/45233/krseries.pdf")
    (tags "C Disc series Radial pin pitch 2.50mm  diameter 3.0mm width 1.6mm Capacitor")
    (path /58A9FFD7)
    (fp_text reference C3 (at 0.08 -1.405 90) (layer F.SilkS)
      (effects (font (size 1 1) (thickness 0.15)))
    )
    (fp_text value 1n (at 4.58 -0.155 90) (layer F.Fab)
      (effects (font (size 1 1) (thickness 0.15)))
    )
    (fp_line (start -0.25 -0.8) (end -0.25 0.8) (layer F.Fab) (width 0.1))
    (fp_line (start -0.25 0.8) (end 2.75 0.8) (layer F.Fab) (width 0.1))
    (fp_line (start 2.75 0.8) (end 2.75 -0.8) (layer F.Fab) (width 0.1))
    (fp_line (start 2.75 -0.8) (end -0.25 -0.8) (layer F.Fab) (width 0.1))
    (fp_line (start 0.663 -0.861) (end 1.837 -0.861) (layer F.SilkS) (width 0.12))
    (fp_line (start 0.663 0.861) (end 1.837 0.861) (layer F.SilkS) (width 0.12))
    (fp_line (start -1.05 -1.15) (end -1.05 1.15) (layer F.CrtYd) (width 0.05))
    (fp_line (start -1.05 1.15) (end 3.55 1.15) (layer F.CrtYd) (width 0.05))
    (fp_line (start 3.55 1.15) (end 3.55 -1.15) (layer F.CrtYd) (width 0.05))
    (fp_line (start 3.55 -1.15) (end -1.05 -1.15) (layer F.CrtYd) (width 0.05))
    (pad 1 thru_hole circle (at 0 0 90) (size 1.6 1.6) (drill 0.8) (layers *.Cu *.Mask)
      (net 5 "Net-(C3-Pad1)"))
    (pad 2 thru_hole circle (at 2.5 0 90) (size 1.6 1.6) (drill 0.8) (layers *.Cu *.Mask)
      (net 6 "Net-(C3-Pad2)"))
    (model Capacitors_THT.3dshapes/C_Disc_D3.0mm_W1.6mm_P2.50mm.wrl
      (at (xyz 0 0 0))
      (scale (xyz 0.393701 0.393701 0.393701))
      (rotate (xyz 0 0 0))
    )
  )

  (module Capacitors_THT:C_Disc_D3.0mm_W1.6mm_P2.50mm (layer F.Cu) (tedit 58765D06) (tstamp 58AA0E0F)
    (at 155.115 96.79 180)
    (descr "C, Disc series, Radial, pin pitch=2.50mm, , diameter*width=3.0*1.6mm^2, Capacitor, http://www.vishay.com/docs/45233/krseries.pdf")
    (tags "C Disc series Radial pin pitch 2.50mm  diameter 3.0mm width 1.6mm Capacitor")
    (path /58AA1C3C)
    (fp_text reference C4 (at 1.25 -1.86 180) (layer F.SilkS)
      (effects (font (size 1 1) (thickness 0.15)))
    )
    (fp_text value 3.5u (at 1.25 1.86 180) (layer F.Fab)
      (effects (font (size 1 1) (thickness 0.15)))
    )
    (fp_line (start -0.25 -0.8) (end -0.25 0.8) (layer F.Fab) (width 0.1))
    (fp_line (start -0.25 0.8) (end 2.75 0.8) (layer F.Fab) (width 0.1))
    (fp_line (start 2.75 0.8) (end 2.75 -0.8) (layer F.Fab) (width 0.1))
    (fp_line (start 2.75 -0.8) (end -0.25 -0.8) (layer F.Fab) (width 0.1))
    (fp_line (start 0.663 -0.861) (end 1.837 -0.861) (layer F.SilkS) (width 0.12))
    (fp_line (start 0.663 0.861) (end 1.837 0.861) (layer F.SilkS) (width 0.12))
    (fp_line (start -1.05 -1.15) (end -1.05 1.15) (layer F.CrtYd) (width 0.05))
    (fp_line (start -1.05 1.15) (end 3.55 1.15) (layer F.CrtYd) (width 0.05))
    (fp_line (start 3.55 1.15) (end 3.55 -1.15) (layer F.CrtYd) (width 0.05))
    (fp_line (start 3.55 -1.15) (end -1.05 -1.15) (layer F.CrtYd) (width 0.05))
    (pad 1 thru_hole circle (at 0 0 180) (size 1.6 1.6) (drill 0.8) (layers *.Cu *.Mask)
      (net 6 "Net-(C3-Pad2)"))
    (pad 2 thru_hole circle (at 2.5 0 180) (size 1.6 1.6) (drill 0.8) (layers *.Cu *.Mask)
      (net 2 GND))
    (model Capacitors_THT.3dshapes/C_Disc_D3.0mm_W1.6mm_P2.50mm.wrl
      (at (xyz 0 0 0))
      (scale (xyz 0.393701 0.393701 0.393701))
      (rotate (xyz 0 0 0))
    )
  )

  (module Resistors_THT:R_Axial_DIN0204_L3.6mm_D1.6mm_P2.54mm_Vertical (layer F.Cu) (tedit 58B56539) (tstamp 58AA9479)
    (at 163.624 115.078 180)
    (descr "Resistor, Axial_DIN0204 series, Axial, Vertical, pin pitch=2.54mm, 0.16666666666666666W = 1/6W, length*diameter=3.6*1.6mm^2, http://cdn-reichelt.de/documents/datenblatt/B400/1_4W%23YAG.pdf")
    (tags "Resistor Axial_DIN0204 series Axial Vertical pin pitch 2.54mm 0.16666666666666666W = 1/6W length 3.6mm diameter 1.6mm")
    (path /58A9F1F4)
    (fp_text reference R1 (at 2.255 -1.87 180) (layer F.SilkS)
      (effects (font (size 1 1) (thickness 0.15)))
    )
    (fp_text value 120R (at -1.495 -1.87 180) (layer F.Fab)
      (effects (font (size 1 1) (thickness 0.15)))
    )
    (fp_circle (center 0 0) (end 0.8 0) (layer F.Fab) (width 0.1))
    (fp_circle (center 0 0) (end 0.86 0) (layer F.SilkS) (width 0.12))
    (fp_line (start 0 0) (end 2.54 0) (layer F.Fab) (width 0.1))
    (fp_line (start 0.86 0) (end 1.54 0) (layer F.SilkS) (width 0.12))
    (fp_line (start -1.15 -1.15) (end -1.15 1.15) (layer F.CrtYd) (width 0.05))
    (fp_line (start -1.15 1.15) (end 3.55 1.15) (layer F.CrtYd) (width 0.05))
    (fp_line (start 3.55 1.15) (end 3.55 -1.15) (layer F.CrtYd) (width 0.05))
    (fp_line (start 3.55 -1.15) (end -1.15 -1.15) (layer F.CrtYd) (width 0.05))
    (pad 1 thru_hole circle (at 0 0 180) (size 1.4 1.4) (drill 0.8) (layers *.Cu *.Mask)
      (net 1 VAA))
    (pad 2 thru_hole oval (at 2.54 0 180) (size 1.4 1.4) (drill 0.8) (layers *.Cu *.Mask)
      (net 13 VCC))
    (model Resistors_THT.3dshapes/R_Axial_DIN0204_L3.6mm_D1.6mm_P2.54mm_Vertical.wrl
      (at (xyz 0 0 0))
      (scale (xyz 0.393701 0.393701 0.393701))
      (rotate (xyz 0 0 0))
    )
  )

  (module Resistors_THT:R_Axial_DIN0204_L3.6mm_D1.6mm_P2.54mm_Vertical (layer F.Cu) (tedit 58B56524) (tstamp 58AA947E)
    (at 150.5 112)
    (descr "Resistor, Axial_DIN0204 series, Axial, Vertical, pin pitch=2.54mm, 0.16666666666666666W = 1/6W, length*diameter=3.6*1.6mm^2, http://cdn-reichelt.de/documents/datenblatt/B400/1_4W%23YAG.pdf")
    (tags "Resistor Axial_DIN0204 series Axial Vertical pin pitch 2.54mm 0.16666666666666666W = 1/6W length 3.6mm diameter 1.6mm")
    (path /58A9E6CA)
    (fp_text reference R4 (at 4.085 1.595) (layer F.SilkS)
      (effects (font (size 1 1) (thickness 0.15)))
    )
    (fp_text value 2.2k (at 1.27 1.86) (layer F.Fab)
      (effects (font (size 1 1) (thickness 0.15)))
    )
    (fp_circle (center 0 0) (end 0.8 0) (layer F.Fab) (width 0.1))
    (fp_circle (center 0 0) (end 0.86 0) (layer F.SilkS) (width 0.12))
    (fp_line (start 0 0) (end 2.54 0) (layer F.Fab) (width 0.1))
    (fp_line (start 0.86 0) (end 1.54 0) (layer F.SilkS) (width 0.12))
    (fp_line (start -1.15 -1.15) (end -1.15 1.15) (layer F.CrtYd) (width 0.05))
    (fp_line (start -1.15 1.15) (end 3.55 1.15) (layer F.CrtYd) (width 0.05))
    (fp_line (start 3.55 1.15) (end 3.55 -1.15) (layer F.CrtYd) (width 0.05))
    (fp_line (start 3.55 -1.15) (end -1.15 -1.15) (layer F.CrtYd) (width 0.05))
    (pad 1 thru_hole circle (at 0 0) (size 1.4 1.4) (drill 0.8) (layers *.Cu *.Mask)
      (net 9 "Net-(IC1-Pad5)"))
    (pad 2 thru_hole oval (at 2.54 0) (size 1.4 1.4) (drill 0.8) (layers *.Cu *.Mask)
      (net 7 "Net-(D1-Pad2)"))
    (model Resistors_THT.3dshapes/R_Axial_DIN0204_L3.6mm_D1.6mm_P2.54mm_Vertical.wrl
      (at (xyz 0 0 0))
      (scale (xyz 0.393701 0.393701 0.393701))
      (rotate (xyz 0 0 0))
    )
  )

  (module Resistors_THT:R_Axial_DIN0204_L3.6mm_D1.6mm_P2.54mm_Vertical (layer F.Cu) (tedit 58B5652C) (tstamp 58AA9483)
    (at 157.782 111.776 270)
    (descr "Resistor, Axial_DIN0204 series, Axial, Vertical, pin pitch=2.54mm, 0.16666666666666666W = 1/6W, length*diameter=3.6*1.6mm^2, http://cdn-reichelt.de/documents/datenblatt/B400/1_4W%23YAG.pdf")
    (tags "Resistor Axial_DIN0204 series Axial Vertical pin pitch 2.54mm 0.16666666666666666W = 1/6W length 3.6mm diameter 1.6mm")
    (path /58A9E73E)
    (fp_text reference R6 (at 1.27 -1.86 270) (layer F.SilkS)
      (effects (font (size 1 1) (thickness 0.15)))
    )
    (fp_text value 4.7k (at 1.27 1.86 270) (layer F.Fab)
      (effects (font (size 1 1) (thickness 0.15)))
    )
    (fp_circle (center 0 0) (end 0.8 0) (layer F.Fab) (width 0.1))
    (fp_circle (center 0 0) (end 0.86 0) (layer F.SilkS) (width 0.12))
    (fp_line (start 0 0) (end 2.54 0) (layer F.Fab) (width 0.1))
    (fp_line (start 0.86 0) (end 1.54 0) (layer F.SilkS) (width 0.12))
    (fp_line (start -1.15 -1.15) (end -1.15 1.15) (layer F.CrtYd) (width 0.05))
    (fp_line (start -1.15 1.15) (end 3.55 1.15) (layer F.CrtYd) (width 0.05))
    (fp_line (start 3.55 1.15) (end 3.55 -1.15) (layer F.CrtYd) (width 0.05))
    (fp_line (start 3.55 -1.15) (end -1.15 -1.15) (layer F.CrtYd) (width 0.05))
    (pad 1 thru_hole circle (at 0 0 270) (size 1.4 1.4) (drill 0.8) (layers *.Cu *.Mask)
      (net 12 "Net-(IC1-Pad7)"))
    (pad 2 thru_hole oval (at 2.54 0 270) (size 1.4 1.4) (drill 0.8) (layers *.Cu *.Mask)
      (net 16 /CHAIN_IN))
    (model Resistors_THT.3dshapes/R_Axial_DIN0204_L3.6mm_D1.6mm_P2.54mm_Vertical.wrl
      (at (xyz 0 0 0))
      (scale (xyz 0.393701 0.393701 0.393701))
      (rotate (xyz 0 0 0))
    )
  )

  (module Capacitors_THT:C_Disc_D3.0mm_W1.6mm_P2.50mm (layer F.Cu) (tedit 58AD9931) (tstamp 58AA9AD2)
    (at 172.895 96.155 180)
    (descr "C, Disc series, Radial, pin pitch=2.50mm, , diameter*width=3.0*1.6mm^2, Capacitor, http://www.vishay.com/docs/45233/krseries.pdf")
    (tags "C Disc series Radial pin pitch 2.50mm  diameter 3.0mm width 1.6mm Capacitor")
    (path /58AA0875)
    (fp_text reference C2 (at -2.105 -0.095 180) (layer F.SilkS)
      (effects (font (size 1 1) (thickness 0.15)))
    )
    (fp_text value 10n (at 5.145 -0.095 180) (layer F.Fab)
      (effects (font (size 1 1) (thickness 0.15)))
    )
    (fp_line (start -0.25 -0.8) (end -0.25 0.8) (layer F.Fab) (width 0.1))
    (fp_line (start -0.25 0.8) (end 2.75 0.8) (layer F.Fab) (width 0.1))
    (fp_line (start 2.75 0.8) (end 2.75 -0.8) (layer F.Fab) (width 0.1))
    (fp_line (start 2.75 -0.8) (end -0.25 -0.8) (layer F.Fab) (width 0.1))
    (fp_line (start 0.663 -0.861) (end 1.837 -0.861) (layer F.SilkS) (width 0.12))
    (fp_line (start 0.663 0.861) (end 1.837 0.861) (layer F.SilkS) (width 0.12))
    (fp_line (start -1.05 -1.15) (end -1.05 1.15) (layer F.CrtYd) (width 0.05))
    (fp_line (start -1.05 1.15) (end 3.55 1.15) (layer F.CrtYd) (width 0.05))
    (fp_line (start 3.55 1.15) (end 3.55 -1.15) (layer F.CrtYd) (width 0.05))
    (fp_line (start 3.55 -1.15) (end -1.05 -1.15) (layer F.CrtYd) (width 0.05))
    (pad 1 thru_hole circle (at 0 0 180) (size 1.6 1.6) (drill 0.8) (layers *.Cu *.Mask)
      (net 3 "Net-(C2-Pad1)"))
    (pad 2 thru_hole circle (at 2.5 0 180) (size 1.6 1.6) (drill 0.8) (layers *.Cu *.Mask)
      (net 4 "Net-(C2-Pad2)"))
    (model Capacitors_THT.3dshapes/C_Disc_D3.0mm_W1.6mm_P2.50mm.wrl
      (at (xyz 0 0 0))
      (scale (xyz 0.393701 0.393701 0.393701))
      (rotate (xyz 0 0 0))
    )
  )

  (module Capacitors_THT:C_Disc_D3.0mm_W1.6mm_P2.50mm (layer F.Cu) (tedit 58765D06) (tstamp 58AA9DD9)
    (at 181 121 180)
    (descr "C, Disc series, Radial, pin pitch=2.50mm, , diameter*width=3.0*1.6mm^2, Capacitor, http://www.vishay.com/docs/45233/krseries.pdf")
    (tags "C Disc series Radial pin pitch 2.50mm  diameter 3.0mm width 1.6mm Capacitor")
    (path /58AAA562)
    (fp_text reference C5 (at 1.25 -1.86 180) (layer F.SilkS)
      (effects (font (size 1 1) (thickness 0.15)))
    )
    (fp_text value 10u (at 1.25 1.86 180) (layer F.Fab)
      (effects (font (size 1 1) (thickness 0.15)))
    )
    (fp_line (start -0.25 -0.8) (end -0.25 0.8) (layer F.Fab) (width 0.1))
    (fp_line (start -0.25 0.8) (end 2.75 0.8) (layer F.Fab) (width 0.1))
    (fp_line (start 2.75 0.8) (end 2.75 -0.8) (layer F.Fab) (width 0.1))
    (fp_line (start 2.75 -0.8) (end -0.25 -0.8) (layer F.Fab) (width 0.1))
    (fp_line (start 0.663 -0.861) (end 1.837 -0.861) (layer F.SilkS) (width 0.12))
    (fp_line (start 0.663 0.861) (end 1.837 0.861) (layer F.SilkS) (width 0.12))
    (fp_line (start -1.05 -1.15) (end -1.05 1.15) (layer F.CrtYd) (width 0.05))
    (fp_line (start -1.05 1.15) (end 3.55 1.15) (layer F.CrtYd) (width 0.05))
    (fp_line (start 3.55 1.15) (end 3.55 -1.15) (layer F.CrtYd) (width 0.05))
    (fp_line (start 3.55 -1.15) (end -1.05 -1.15) (layer F.CrtYd) (width 0.05))
    (pad 1 thru_hole circle (at 0 0 180) (size 1.6 1.6) (drill 0.8) (layers *.Cu *.Mask)
      (net 13 VCC))
    (pad 2 thru_hole circle (at 2.5 0 180) (size 1.6 1.6) (drill 0.8) (layers *.Cu *.Mask)
      (net 2 GND))
    (model Capacitors_THT.3dshapes/C_Disc_D3.0mm_W1.6mm_P2.50mm.wrl
      (at (xyz 0 0 0))
      (scale (xyz 0.393701 0.393701 0.393701))
      (rotate (xyz 0 0 0))
    )
  )

  (module Capacitors_THT:C_Disc_D3.0mm_W1.6mm_P2.50mm (layer F.Cu) (tedit 58765D06) (tstamp 58AA9E36)
    (at 178.4 99.35 90)
    (descr "C, Disc series, Radial, pin pitch=2.50mm, , diameter*width=3.0*1.6mm^2, Capacitor, http://www.vishay.com/docs/45233/krseries.pdf")
    (tags "C Disc series Radial pin pitch 2.50mm  diameter 3.0mm width 1.6mm Capacitor")
    (path /58AAA7FF)
    (fp_text reference C6 (at 1.25 -1.86 90) (layer F.SilkS)
      (effects (font (size 1 1) (thickness 0.15)))
    )
    (fp_text value 10u (at 1.25 1.86 90) (layer F.Fab)
      (effects (font (size 1 1) (thickness 0.15)))
    )
    (fp_line (start -0.25 -0.8) (end -0.25 0.8) (layer F.Fab) (width 0.1))
    (fp_line (start -0.25 0.8) (end 2.75 0.8) (layer F.Fab) (width 0.1))
    (fp_line (start 2.75 0.8) (end 2.75 -0.8) (layer F.Fab) (width 0.1))
    (fp_line (start 2.75 -0.8) (end -0.25 -0.8) (layer F.Fab) (width 0.1))
    (fp_line (start 0.663 -0.861) (end 1.837 -0.861) (layer F.SilkS) (width 0.12))
    (fp_line (start 0.663 0.861) (end 1.837 0.861) (layer F.SilkS) (width 0.12))
    (fp_line (start -1.05 -1.15) (end -1.05 1.15) (layer F.CrtYd) (width 0.05))
    (fp_line (start -1.05 1.15) (end 3.55 1.15) (layer F.CrtYd) (width 0.05))
    (fp_line (start 3.55 1.15) (end 3.55 -1.15) (layer F.CrtYd) (width 0.05))
    (fp_line (start 3.55 -1.15) (end -1.05 -1.15) (layer F.CrtYd) (width 0.05))
    (pad 1 thru_hole circle (at 0 0 90) (size 1.6 1.6) (drill 0.8) (layers *.Cu *.Mask)
      (net 18 "Net-(C6-Pad1)"))
    (pad 2 thru_hole circle (at 2.5 0 90) (size 1.6 1.6) (drill 0.8) (layers *.Cu *.Mask)
      (net 2 GND))
    (model Capacitors_THT.3dshapes/C_Disc_D3.0mm_W1.6mm_P2.50mm.wrl
      (at (xyz 0 0 0))
      (scale (xyz 0.393701 0.393701 0.393701))
      (rotate (xyz 0 0 0))
    )
  )

  (module Connectors:1pin (layer F.Cu) (tedit 58BEDF61) (tstamp 58AD7CEF)
    (at 176 84)
    (descr "module 1 pin (ou trou mecanique de percage)")
    (tags DEV)
    (fp_text reference REF** (at 0 -3.048) (layer F.SilkS)
      (effects (font (size 1 1) (thickness 0.15)))
    )
    (fp_text value 1pin (at 0 3) (layer F.Fab)
      (effects (font (size 1 1) (thickness 0.15)))
    )
    (fp_circle (center 0 0) (end 2 0.8) (layer F.Fab) (width 0.1))
    (fp_circle (center 0 0) (end 2.6 0) (layer F.CrtYd) (width 0.05))
    (fp_circle (center 0 0) (end 0 -2.286) (layer F.SilkS) (width 0.12))
    (pad 1 thru_hole oval (at 0 0) (size 1 3) (drill oval 1 3) (layers *.Cu *.Mask))
  )

  (module Connectors:1pin (layer F.Cu) (tedit 58BEDF4E) (tstamp 58AD7CF7)
    (at 156 84)
    (descr "module 1 pin (ou trou mecanique de percage)")
    (tags DEV)
    (fp_text reference REF** (at 0 -3.048) (layer F.SilkS)
      (effects (font (size 1 1) (thickness 0.15)))
    )
    (fp_text value 1pin (at 0 3) (layer F.Fab)
      (effects (font (size 1 1) (thickness 0.15)))
    )
    (fp_circle (center 0 0) (end 2 0.8) (layer F.Fab) (width 0.1))
    (fp_circle (center 0 0) (end 2.6 0) (layer F.CrtYd) (width 0.05))
    (fp_circle (center 0 0) (end 0 -2.286) (layer F.SilkS) (width 0.12))
    (pad 1 thru_hole oval (at 0 0) (size 1 3) (drill oval 1 3) (layers *.Cu *.Mask))
  )

  (module Resistors_THT:R_Axial_DIN0204_L3.6mm_D1.6mm_P2.54mm_Vertical (layer F.Cu) (tedit 5874F706) (tstamp 58BEDE55)
    (at 157 120)
    (descr "Resistor, Axial_DIN0204 series, Axial, Vertical, pin pitch=2.54mm, 0.16666666666666666W = 1/6W, length*diameter=3.6*1.6mm^2, http://cdn-reichelt.de/documents/datenblatt/B400/1_4W%23YAG.pdf")
    (tags "Resistor Axial_DIN0204 series Axial Vertical pin pitch 2.54mm 0.16666666666666666W = 1/6W length 3.6mm diameter 1.6mm")
    (path /58A9E711)
    (fp_text reference R5 (at 1.27 -1.86) (layer F.SilkS)
      (effects (font (size 1 1) (thickness 0.15)))
    )
    (fp_text value 4.7k (at 1.27 1.86) (layer F.Fab)
      (effects (font (size 1 1) (thickness 0.15)))
    )
    (fp_circle (center 0 0) (end 0.8 0) (layer F.Fab) (width 0.1))
    (fp_circle (center 0 0) (end 0.86 0) (layer F.SilkS) (width 0.12))
    (fp_line (start 0 0) (end 2.54 0) (layer F.Fab) (width 0.1))
    (fp_line (start 0.86 0) (end 1.54 0) (layer F.SilkS) (width 0.12))
    (fp_line (start -1.15 -1.15) (end -1.15 1.15) (layer F.CrtYd) (width 0.05))
    (fp_line (start -1.15 1.15) (end 3.55 1.15) (layer F.CrtYd) (width 0.05))
    (fp_line (start 3.55 1.15) (end 3.55 -1.15) (layer F.CrtYd) (width 0.05))
    (fp_line (start 3.55 -1.15) (end -1.15 -1.15) (layer F.CrtYd) (width 0.05))
    (pad 1 thru_hole circle (at 0 0) (size 1.4 1.4) (drill 0.7) (layers *.Cu *.Mask)
      (net 10 "Net-(IC1-Pad6)"))
    (pad 2 thru_hole oval (at 2.54 0) (size 1.4 1.4) (drill 0.7) (layers *.Cu *.Mask)
      (net 17 /OUTPUT))
    (model Resistors_THT.3dshapes/R_Axial_DIN0204_L3.6mm_D1.6mm_P2.54mm_Vertical.wrl
      (at (xyz 0 0 0))
      (scale (xyz 0.393701 0.393701 0.393701))
      (rotate (xyz 0 0 0))
    )
  )

  (gr_line (start 148 72) (end 148 123.75) (angle 90) (layer Edge.Cuts) (width 0.15))
  (gr_line (start 184 123.75) (end 184 72) (angle 90) (layer Edge.Cuts) (width 0.15))
  (gr_line (start 184 72) (end 148 72) (angle 90) (layer Edge.Cuts) (width 0.15))
  (gr_line (start 148 123.75) (end 184 123.75) (angle 90) (layer Edge.Cuts) (width 0.15))
  (gr_text "PIR-SENSOR\n2017-02-22" (at 166 75 180) (layer B.Cu)
    (effects (font (size 1 1) (thickness 0.25)) (justify mirror))
  )
  (gr_circle (center 165.925 84.09) (end 175.925 84.09) (layer F.SilkS) (width 0.2))

  (segment (start 163.37 112.284) (end 163.37 114.824) (width 0.4) (layer B.Cu) (net 1))
  (segment (start 163.37 114.824) (end 163.546 115) (width 0.4) (layer B.Cu) (net 1) (tstamp 58B55E71))
  (segment (start 163.546 115) (end 166.5 115) (width 0.4) (layer B.Cu) (net 1) (tstamp 58B55E72))
  (segment (start 163.37 112.284) (end 162.862 112.284) (width 0.4) (layer B.Cu) (net 1))
  (segment (start 162.862 112.284) (end 161.084 110.506) (width 0.4) (layer B.Cu) (net 1) (tstamp 58AF03AB))
  (segment (start 161.084 106.696) (end 165.91 101.87) (width 0.4) (layer B.Cu) (net 1) (tstamp 58AF03AE))
  (segment (start 161.084 110.506) (end 161.084 106.696) (width 0.4) (layer B.Cu) (net 1) (tstamp 58AF03AC))
  (segment (start 163.37 112.284) (end 163.116 112.284) (width 0.4) (layer B.Cu) (net 1))
  (segment (start 165.91 101.87) (end 165.91 99.33) (width 0.4) (layer B.Cu) (net 1))
  (segment (start 168.45 109.49) (end 168.45 112.03) (width 0.4) (layer B.Cu) (net 3))
  (segment (start 168.45 112.03) (end 168.704 112.284) (width 0.4) (layer B.Cu) (net 3) (tstamp 58AF02A5))
  (segment (start 168.704 112.284) (end 165.91 112.284) (width 0.4) (layer B.Cu) (net 3) (tstamp 58AF02A6))
  (segment (start 168.45 109.49) (end 174.165 103.775) (width 0.4) (layer B.Cu) (net 3))
  (segment (start 172.895 98.695) (end 172.895 96.155) (width 0.4) (layer B.Cu) (net 3) (tstamp 58AD77D4))
  (segment (start 174.165 99.965) (end 172.895 98.695) (width 0.4) (layer B.Cu) (net 3) (tstamp 58AD77D3))
  (segment (start 174.165 103.775) (end 174.165 99.965) (width 0.4) (layer B.Cu) (net 3) (tstamp 58AD77D2))
  (segment (start 170.395 93.395) (end 166 89) (width 0.4) (layer B.Cu) (net 4) (tstamp 58B55B01))
  (segment (start 170.395 96.155) (end 170.395 93.395) (width 0.4) (layer B.Cu) (net 4))
  (segment (start 155.04 92) (end 163 92) (width 0.4) (layer B.Cu) (net 4))
  (segment (start 166 89) (end 165.925 89) (width 0.4) (layer B.Cu) (net 4) (tstamp 58B557AB))
  (segment (start 165.925 89.075) (end 166 89) (width 0.4) (layer B.Cu) (net 4) (tstamp 58B557A9))
  (segment (start 163 92) (end 165.925 89.075) (width 0.4) (layer B.Cu) (net 4) (tstamp 58B557A6))
  (segment (start 165.925 81.55) (end 165.925 89) (width 0.4) (layer B.Cu) (net 4))
  (segment (start 157.655 99.33) (end 160.195 99.33) (width 0.4) (layer B.Cu) (net 5))
  (segment (start 160.195 99.33) (end 160.83 98.695) (width 0.4) (layer B.Cu) (net 5) (tstamp 58AD94BE))
  (segment (start 156.385 101.87) (end 156.385 100.6) (width 0.4) (layer B.Cu) (net 5))
  (segment (start 156.385 100.6) (end 157.655 99.33) (width 0.4) (layer B.Cu) (net 5) (tstamp 58AD94BB))
  (segment (start 160.83 98.695) (end 162.735 98.695) (width 0.4) (layer B.Cu) (net 5))
  (segment (start 162.735 98.695) (end 164.005 97.425) (width 0.4) (layer B.Cu) (net 5) (tstamp 58AD77AA))
  (segment (start 164.005 97.425) (end 167.18 97.425) (width 0.4) (layer B.Cu) (net 5) (tstamp 58AD77AB))
  (segment (start 167.18 97.425) (end 168.45 98.695) (width 0.4) (layer B.Cu) (net 5) (tstamp 58AD77AC))
  (segment (start 168.45 98.695) (end 168.45 101.87) (width 0.4) (layer B.Cu) (net 5) (tstamp 58AD77AD))
  (segment (start 160.83 96.155) (end 167.18 96.155) (width 0.4) (layer B.Cu) (net 6))
  (segment (start 165.91 106.315) (end 165.91 109.49) (width 0.4) (layer B.Cu) (net 6) (tstamp 58AD77B8))
  (segment (start 167.815 104.41) (end 165.91 106.315) (width 0.4) (layer B.Cu) (net 6) (tstamp 58AD77B7))
  (segment (start 171.625 104.41) (end 167.815 104.41) (width 0.4) (layer B.Cu) (net 6) (tstamp 58AD77B6))
  (segment (start 172.895 103.14) (end 171.625 104.41) (width 0.4) (layer B.Cu) (net 6) (tstamp 58AD77B5))
  (segment (start 172.895 100.6) (end 172.895 103.14) (width 0.4) (layer B.Cu) (net 6) (tstamp 58AD77B3))
  (segment (start 170.99 98.695) (end 172.895 100.6) (width 0.4) (layer B.Cu) (net 6) (tstamp 58AD77B2))
  (segment (start 169.72 98.695) (end 170.99 98.695) (width 0.4) (layer B.Cu) (net 6) (tstamp 58AD77B1))
  (segment (start 167.18 96.155) (end 169.72 98.695) (width 0.4) (layer B.Cu) (net 6) (tstamp 58AD77B0))
  (segment (start 155.115 96.79) (end 157.615 96.79) (width 0.4) (layer B.Cu) (net 6))
  (segment (start 157.615 96.79) (end 157.655 96.83) (width 0.4) (layer B.Cu) (net 6) (tstamp 58AD772A))
  (segment (start 157.655 96.83) (end 160.155 96.83) (width 0.4) (layer B.Cu) (net 6))
  (segment (start 160.155 96.83) (end 160.83 96.155) (width 0.4) (layer B.Cu) (net 6) (tstamp 58AD7711))
  (segment (start 153.04 112) (end 153.04 117) (width 0.4) (layer B.Cu) (net 7))
  (segment (start 151.305 111.195) (end 150.5 112) (width 0.4) (layer B.Cu) (net 9) (tstamp 58B55AB6))
  (segment (start 151.305 109.49) (end 151.305 111.195) (width 0.4) (layer B.Cu) (net 9))
  (segment (start 153.845 109.49) (end 153.99 109.49) (width 0.4) (layer B.Cu) (net 10))
  (segment (start 153.99 109.49) (end 155.5 111) (width 0.4) (layer B.Cu) (net 10) (tstamp 58BEDE7E))
  (segment (start 155.5 111) (end 155.5 118.5) (width 0.4) (layer B.Cu) (net 10) (tstamp 58BEDE7F))
  (segment (start 155.5 118.5) (end 157 120) (width 0.4) (layer B.Cu) (net 10) (tstamp 58BEDE80))
  (segment (start 156.385 109.49) (end 156.385 110.379) (width 0.4) (layer B.Cu) (net 12))
  (segment (start 156.385 110.379) (end 157.782 111.776) (width 0.4) (layer B.Cu) (net 12) (tstamp 58AF033F))
  (segment (start 181 115) (end 181 121) (width 0.4) (layer B.Cu) (net 13))
  (segment (start 161.084 115.078) (end 161.084 115.584) (width 0.4) (layer B.Cu) (net 13))
  (segment (start 161.084 115.584) (end 162.5 117) (width 0.4) (layer B.Cu) (net 13) (tstamp 58B56620))
  (segment (start 175.46 106.04) (end 178 106.04) (width 0.4) (layer B.Cu) (net 13) (tstamp 58B5662A))
  (segment (start 174 107.5) (end 175.46 106.04) (width 0.4) (layer B.Cu) (net 13) (tstamp 58B56629))
  (segment (start 174 115.549998) (end 174 107.5) (width 0.4) (layer B.Cu) (net 13) (tstamp 58B56625))
  (segment (start 172.549998 117) (end 174 115.549998) (width 0.4) (layer B.Cu) (net 13) (tstamp 58B56623))
  (segment (start 162.5 117) (end 172.549998 117) (width 0.4) (layer B.Cu) (net 13) (tstamp 58B56621))
  (segment (start 178 106.04) (end 179.79 106.04) (width 0.4) (layer B.Cu) (net 13))
  (segment (start 180.46 115.54) (end 180.25 115.54) (width 0.4) (layer B.Cu) (net 13) (tstamp 58B55F43))
  (segment (start 180.25 115.54) (end 178 115.54) (width 0.4) (layer B.Cu) (net 13) (tstamp 58B55F57))
  (segment (start 181 115) (end 180.46 115.54) (width 0.4) (layer B.Cu) (net 13) (tstamp 58B55F42))
  (segment (start 181 107.25) (end 181 115) (width 0.4) (layer B.Cu) (net 13) (tstamp 58B55F41))
  (segment (start 179.79 106.04) (end 181 107.25) (width 0.4) (layer B.Cu) (net 13) (tstamp 58B55F40))
  (segment (start 161.084 115.078) (end 161.084 112.284) (width 0.4) (layer B.Cu) (net 13))
  (segment (start 161.084 112.284) (end 158.925 110.125) (width 0.4) (layer B.Cu) (net 13) (tstamp 58AF02E4))
  (segment (start 158.925 110.125) (end 158.925 109.49) (width 0.4) (layer B.Cu) (net 13) (tstamp 58AF02E5))
  (segment (start 157.782 114.316) (end 157.782 115.282) (width 0.4) (layer B.Cu) (net 16))
  (segment (start 174.75 111.83) (end 178 108.58) (width 0.4) (layer B.Cu) (net 16) (tstamp 58B55F19))
  (segment (start 174.75 116.25) (end 174.75 111.83) (width 0.4) (layer B.Cu) (net 16) (tstamp 58B55F18))
  (segment (start 173.25 117.75) (end 174.75 116.25) (width 0.4) (layer B.Cu) (net 16) (tstamp 58B55F17))
  (segment (start 160.25 117.75) (end 173.25 117.75) (width 0.4) (layer B.Cu) (net 16) (tstamp 58B55F15))
  (segment (start 157.782 115.282) (end 160.25 117.75) (width 0.4) (layer B.Cu) (net 16) (tstamp 58B55F14))
  (segment (start 178 118.08) (end 177.92 118.08) (width 0.4) (layer B.Cu) (net 17))
  (segment (start 177.92 118.08) (end 176 120) (width 0.4) (layer B.Cu) (net 17) (tstamp 58BEDE85))
  (segment (start 176 120) (end 159.54 120) (width 0.4) (layer B.Cu) (net 17) (tstamp 58BEDE86))
  (segment (start 176.07 99.33) (end 178.38 99.33) (width 0.4) (layer B.Cu) (net 18))
  (segment (start 178.38 99.33) (end 178.4 99.35) (width 0.4) (layer B.Cu) (net 18) (tstamp 58BEE127))
  (segment (start 176.07 93.57) (end 176.07 99.33) (width 0.4) (layer B.Cu) (net 18) (tstamp 58B55B07))
  (segment (start 168.465 85.965) (end 176.07 93.57) (width 0.4) (layer B.Cu) (net 18) (tstamp 58B55B05))
  (segment (start 168.465 84.09) (end 168.465 85.965) (width 0.4) (layer B.Cu) (net 18))

  (zone (net 2) (net_name GND) (layer B.Cu) (tstamp 58AF048C) (hatch edge 0.508)
    (connect_pads (clearance 0.25))
    (min_thickness 0.25)
    (fill yes (arc_segments 16) (thermal_gap 0.5) (thermal_bridge_width 0.508))
    (polygon
      (pts
        (xy 184 123.75) (xy 148 123.75) (xy 148 72) (xy 184 72)
      )
    )
    (filled_polygon
      (pts
        (xy 183.55 123.3) (xy 148.45 123.3) (xy 148.45 122.00355) (xy 177.678884 122.00355) (xy 177.753732 122.246617)
        (xy 178.287598 122.437308) (xy 178.853799 122.409182) (xy 179.246268 122.246617) (xy 179.321116 122.00355) (xy 178.5 121.182434)
        (xy 177.678884 122.00355) (xy 148.45 122.00355) (xy 148.45 117.28525) (xy 148.975 117.28525) (xy 148.975 118.02432)
        (xy 149.070151 118.254034) (xy 149.245966 118.42985) (xy 149.47568 118.525) (xy 150.21475 118.525) (xy 150.371 118.36875)
        (xy 150.371 117.129) (xy 149.13125 117.129) (xy 148.975 117.28525) (xy 148.45 117.28525) (xy 148.45 115.97568)
        (xy 148.975 115.97568) (xy 148.975 116.71475) (xy 149.13125 116.871) (xy 150.371 116.871) (xy 150.371 115.63125)
        (xy 150.629 115.63125) (xy 150.629 116.871) (xy 150.649 116.871) (xy 150.649 117.129) (xy 150.629 117.129)
        (xy 150.629 118.36875) (xy 150.78525 118.525) (xy 151.52432 118.525) (xy 151.754034 118.42985) (xy 151.929849 118.254034)
        (xy 152.025 118.02432) (xy 152.025 117.858697) (xy 152.288468 118.122625) (xy 152.775285 118.324769) (xy 153.302402 118.325229)
        (xy 153.789572 118.123935) (xy 154.162625 117.751532) (xy 154.364769 117.264715) (xy 154.365229 116.737598) (xy 154.163935 116.250428)
        (xy 153.791532 115.877375) (xy 153.665 115.824834) (xy 153.665 112.924143) (xy 153.857535 112.795495) (xy 154.101404 112.430519)
        (xy 154.18704 112) (xy 154.101404 111.569481) (xy 153.857535 111.204505) (xy 153.492559 110.960636) (xy 153.06204 110.875)
        (xy 153.01796 110.875) (xy 152.587441 110.960636) (xy 152.222465 111.204505) (xy 151.978596 111.569481) (xy 151.89296 112)
        (xy 151.978596 112.430519) (xy 152.222465 112.795495) (xy 152.415 112.924143) (xy 152.415 115.824593) (xy 152.290428 115.876065)
        (xy 152.025 116.141031) (xy 152.025 115.97568) (xy 151.929849 115.745966) (xy 151.754034 115.57015) (xy 151.52432 115.475)
        (xy 150.78525 115.475) (xy 150.629 115.63125) (xy 150.371 115.63125) (xy 150.21475 115.475) (xy 149.47568 115.475)
        (xy 149.245966 115.57015) (xy 149.070151 115.745966) (xy 148.975 115.97568) (xy 148.45 115.97568) (xy 148.45 112.222795)
        (xy 149.374805 112.222795) (xy 149.545715 112.636429) (xy 149.861907 112.953172) (xy 150.275242 113.124804) (xy 150.722795 113.125195)
        (xy 151.136429 112.954285) (xy 151.453172 112.638093) (xy 151.624804 112.224758) (xy 151.625195 111.777205) (xy 151.619781 111.764103)
        (xy 151.746942 111.636942) (xy 151.882425 111.434177) (xy 151.93 111.195) (xy 151.93 110.541373) (xy 152.171206 110.380205)
        (xy 152.436752 109.982786) (xy 152.53 109.513999) (xy 152.53 109.466001) (xy 152.62 109.466001) (xy 152.62 109.513999)
        (xy 152.713248 109.982786) (xy 152.978794 110.380205) (xy 153.376213 110.645751) (xy 153.845 110.738999) (xy 154.270482 110.654365)
        (xy 154.875 111.258883) (xy 154.875 118.5) (xy 154.922575 118.739177) (xy 155.058058 118.941942) (xy 155.879938 119.763822)
        (xy 155.875196 119.775242) (xy 155.874805 120.222795) (xy 156.045715 120.636429) (xy 156.361907 120.953172) (xy 156.775242 121.124804)
        (xy 157.222795 121.125195) (xy 157.636429 120.954285) (xy 157.953172 120.638093) (xy 158.124804 120.224758) (xy 158.125 120)
        (xy 158.39296 120) (xy 158.478596 120.430519) (xy 158.722465 120.795495) (xy 159.087441 121.039364) (xy 159.51796 121.125)
        (xy 159.56204 121.125) (xy 159.992559 121.039364) (xy 160.357535 120.795495) (xy 160.362811 120.787598) (xy 177.062692 120.787598)
        (xy 177.090818 121.353799) (xy 177.253383 121.746268) (xy 177.49645 121.821116) (xy 178.317566 121) (xy 177.49645 120.178884)
        (xy 177.253383 120.253732) (xy 177.062692 120.787598) (xy 160.362811 120.787598) (xy 160.471456 120.625) (xy 176 120.625)
        (xy 176.239177 120.577425) (xy 176.441942 120.441942) (xy 176.887434 119.99645) (xy 177.678884 119.99645) (xy 178.5 120.817566)
        (xy 179.321116 119.99645) (xy 179.246268 119.753383) (xy 178.712402 119.562692) (xy 178.146201 119.590818) (xy 177.753732 119.753383)
        (xy 177.678884 119.99645) (xy 176.887434 119.99645) (xy 177.623884 119.26) (xy 178.787811 119.26) (xy 179.239377 119.170178)
        (xy 179.622197 118.914386) (xy 179.877989 118.531566) (xy 179.967811 118.08) (xy 179.877989 117.628434) (xy 179.622197 117.245614)
        (xy 179.239377 116.989822) (xy 178.787811 116.9) (xy 177.212189 116.9) (xy 176.760623 116.989822) (xy 176.377803 117.245614)
        (xy 176.122011 117.628434) (xy 176.032189 118.08) (xy 176.122011 118.531566) (xy 176.307278 118.808838) (xy 175.741116 119.375)
        (xy 160.471456 119.375) (xy 160.357535 119.204505) (xy 159.992559 118.960636) (xy 159.56204 118.875) (xy 159.51796 118.875)
        (xy 159.087441 118.960636) (xy 158.722465 119.204505) (xy 158.478596 119.569481) (xy 158.39296 120) (xy 158.125 120)
        (xy 158.125195 119.777205) (xy 157.954285 119.363571) (xy 157.638093 119.046828) (xy 157.224758 118.875196) (xy 156.777205 118.874805)
        (xy 156.764102 118.880219) (xy 156.125 118.241116) (xy 156.125 114.29396) (xy 156.657 114.29396) (xy 156.657 114.33804)
        (xy 156.742636 114.768559) (xy 156.986505 115.133535) (xy 157.157 115.247456) (xy 157.157 115.282) (xy 157.204575 115.521177)
        (xy 157.340058 115.723942) (xy 159.808058 118.191942) (xy 160.010822 118.327425) (xy 160.25 118.375) (xy 173.25 118.375)
        (xy 173.489177 118.327425) (xy 173.691942 118.191942) (xy 175.191939 116.691944) (xy 175.191942 116.691942) (xy 175.2814 116.558058)
        (xy 175.327425 116.489178) (xy 175.375 116.25) (xy 175.375 112.657654) (xy 175.913139 112.657654) (xy 176.033068 112.871)
        (xy 177.871 112.871) (xy 177.871 111.62) (xy 178.129 111.62) (xy 178.129 112.871) (xy 179.966932 112.871)
        (xy 180.086861 112.657654) (xy 180.074321 112.591077) (xy 179.817025 112.115409) (xy 179.397284 111.774412) (xy 178.879 111.62)
        (xy 178.129 111.62) (xy 177.871 111.62) (xy 177.121 111.62) (xy 176.602716 111.774412) (xy 176.182975 112.115409)
        (xy 175.925679 112.591077) (xy 175.913139 112.657654) (xy 175.375 112.657654) (xy 175.375 112.088884) (xy 177.703884 109.76)
        (xy 178.787811 109.76) (xy 179.239377 109.670178) (xy 179.622197 109.414386) (xy 179.877989 109.031566) (xy 179.967811 108.58)
        (xy 179.877989 108.128434) (xy 179.622197 107.745614) (xy 179.239377 107.489822) (xy 178.787811 107.4) (xy 177.212189 107.4)
        (xy 176.760623 107.489822) (xy 176.377803 107.745614) (xy 176.122011 108.128434) (xy 176.032189 108.58) (xy 176.122011 109.031566)
        (xy 176.339322 109.356794) (xy 174.625 111.071116) (xy 174.625 107.758884) (xy 175.718884 106.665) (xy 176.237896 106.665)
        (xy 176.377803 106.874386) (xy 176.760623 107.130178) (xy 177.212189 107.22) (xy 178.787811 107.22) (xy 179.239377 107.130178)
        (xy 179.622197 106.874386) (xy 179.669583 106.803467) (xy 180.375 107.508883) (xy 180.375 114.741116) (xy 180.201116 114.915)
        (xy 179.762104 114.915) (xy 179.622197 114.705614) (xy 179.239377 114.449822) (xy 178.882746 114.378884) (xy 179.397284 114.225588)
        (xy 179.817025 113.884591) (xy 180.074321 113.408923) (xy 180.086861 113.342346) (xy 179.966932 113.129) (xy 178.129 113.129)
        (xy 178.129 113.149) (xy 177.871 113.149) (xy 177.871 113.129) (xy 176.033068 113.129) (xy 175.913139 113.342346)
        (xy 175.925679 113.408923) (xy 176.182975 113.884591) (xy 176.602716 114.225588) (xy 177.117254 114.378884) (xy 176.760623 114.449822)
        (xy 176.377803 114.705614) (xy 176.122011 115.088434) (xy 176.032189 115.54) (xy 176.122011 115.991566) (xy 176.377803 116.374386)
        (xy 176.760623 116.630178) (xy 177.212189 116.72) (xy 178.787811 116.72) (xy 179.239377 116.630178) (xy 179.622197 116.374386)
        (xy 179.762104 116.165) (xy 180.375 116.165) (xy 180.375 119.932793) (xy 180.307 119.96089) (xy 179.962101 120.305187)
        (xy 179.864896 120.539283) (xy 179.746617 120.253732) (xy 179.50355 120.178884) (xy 178.682434 121) (xy 179.50355 121.821116)
        (xy 179.746617 121.746268) (xy 179.85617 121.439559) (xy 179.96089 121.693) (xy 180.305187 122.037899) (xy 180.755263 122.224787)
        (xy 181.242599 122.225212) (xy 181.693 122.03911) (xy 182.037899 121.694813) (xy 182.224787 121.244737) (xy 182.225212 120.757401)
        (xy 182.03911 120.307) (xy 181.694813 119.962101) (xy 181.625 119.933112) (xy 181.625 107.25) (xy 181.577425 107.010823)
        (xy 181.577425 107.010822) (xy 181.486671 106.875) (xy 181.441942 106.808058) (xy 181.441939 106.808056) (xy 180.231942 105.598058)
        (xy 180.029177 105.462575) (xy 179.79 105.415) (xy 179.762104 105.415) (xy 179.622197 105.205614) (xy 179.239377 104.949822)
        (xy 178.882746 104.878884) (xy 179.397284 104.725588) (xy 179.817025 104.384591) (xy 180.074321 103.908923) (xy 180.086861 103.842346)
        (xy 179.966932 103.629) (xy 178.129 103.629) (xy 178.129 103.649) (xy 177.871 103.649) (xy 177.871 103.629)
        (xy 176.033068 103.629) (xy 175.913139 103.842346) (xy 175.925679 103.908923) (xy 176.182975 104.384591) (xy 176.602716 104.725588)
        (xy 177.117254 104.878884) (xy 176.760623 104.949822) (xy 176.377803 105.205614) (xy 176.237896 105.415) (xy 175.460005 105.415)
        (xy 175.46 105.414999) (xy 175.220823 105.462575) (xy 175.018058 105.598058) (xy 173.558058 107.058058) (xy 173.422575 107.260823)
        (xy 173.375 107.5) (xy 173.375 115.291115) (xy 172.291114 116.375) (xy 169.436322 116.375) (xy 169.746268 116.246617)
        (xy 169.821116 116.00355) (xy 169 115.182434) (xy 168.178884 116.00355) (xy 168.253732 116.246617) (xy 168.613158 116.375)
        (xy 162.758883 116.375) (xy 162.044066 115.660182) (xy 162.145404 115.508519) (xy 162.23104 115.078) (xy 162.145404 114.647481)
        (xy 161.901535 114.282505) (xy 161.709 114.153857) (xy 161.709 112.284) (xy 161.69586 112.217941) (xy 161.661425 112.044822)
        (xy 161.525942 111.842058) (xy 159.900507 110.216623) (xy 160.056752 109.982786) (xy 160.15 109.513999) (xy 160.15 109.466001)
        (xy 160.056752 108.997214) (xy 159.791206 108.599795) (xy 159.393787 108.334249) (xy 158.925 108.241001) (xy 158.456213 108.334249)
        (xy 158.058794 108.599795) (xy 157.793248 108.997214) (xy 157.7 109.466001) (xy 157.7 109.513999) (xy 157.793248 109.982786)
        (xy 158.058794 110.380205) (xy 158.456213 110.645751) (xy 158.588101 110.671985) (xy 160.459 112.542884) (xy 160.459 114.153857)
        (xy 160.266465 114.282505) (xy 160.022596 114.647481) (xy 159.93696 115.078) (xy 160.022596 115.508519) (xy 160.266465 115.873495)
        (xy 160.631441 116.117364) (xy 160.758817 116.142701) (xy 161.741117 117.125) (xy 160.508884 117.125) (xy 158.541482 115.157598)
        (xy 158.577495 115.133535) (xy 158.821364 114.768559) (xy 158.907 114.33804) (xy 158.907 114.29396) (xy 158.821364 113.863441)
        (xy 158.577495 113.498465) (xy 158.212519 113.254596) (xy 157.782 113.16896) (xy 157.351481 113.254596) (xy 156.986505 113.498465)
        (xy 156.742636 113.863441) (xy 156.657 114.29396) (xy 156.125 114.29396) (xy 156.125 111.002884) (xy 156.661938 111.539822)
        (xy 156.657196 111.551242) (xy 156.656805 111.998795) (xy 156.827715 112.412429) (xy 157.143907 112.729172) (xy 157.557242 112.900804)
        (xy 158.004795 112.901195) (xy 158.418429 112.730285) (xy 158.735172 112.414093) (xy 158.906804 112.000758) (xy 158.907195 111.553205)
        (xy 158.736285 111.139571) (xy 158.420093 110.822828) (xy 158.006758 110.651196) (xy 157.559205 110.650805) (xy 157.546102 110.656219)
        (xy 157.258769 110.368886) (xy 157.516752 109.982786) (xy 157.61 109.513999) (xy 157.61 109.466001) (xy 157.516752 108.997214)
        (xy 157.251206 108.599795) (xy 156.853787 108.334249) (xy 156.385 108.241001) (xy 155.916213 108.334249) (xy 155.518794 108.599795)
        (xy 155.253248 108.997214) (xy 155.16 109.466001) (xy 155.16 109.513999) (xy 155.225085 109.841201) (xy 155.041444 109.65756)
        (xy 155.07 109.513999) (xy 155.07 109.466001) (xy 154.976752 108.997214) (xy 154.711206 108.599795) (xy 154.313787 108.334249)
        (xy 153.845 108.241001) (xy 153.376213 108.334249) (xy 152.978794 108.599795) (xy 152.713248 108.997214) (xy 152.62 109.466001)
        (xy 152.53 109.466001) (xy 152.436752 108.997214) (xy 152.171206 108.599795) (xy 151.773787 108.334249) (xy 151.305 108.241001)
        (xy 150.836213 108.334249) (xy 150.438794 108.599795) (xy 150.173248 108.997214) (xy 150.08 109.466001) (xy 150.08 109.513999)
        (xy 150.173248 109.982786) (xy 150.438794 110.380205) (xy 150.68 110.541373) (xy 150.68 110.875157) (xy 150.277205 110.874805)
        (xy 149.863571 111.045715) (xy 149.546828 111.361907) (xy 149.375196 111.775242) (xy 149.374805 112.222795) (xy 148.45 112.222795)
        (xy 148.45 106.696) (xy 160.459 106.696) (xy 160.459 110.506) (xy 160.506575 110.745177) (xy 160.642058 110.947942)
        (xy 162.144854 112.450738) (xy 162.144788 112.526599) (xy 162.33089 112.977) (xy 162.675187 113.321899) (xy 162.745 113.350888)
        (xy 162.745 114.365864) (xy 162.670828 114.439907) (xy 162.499196 114.853242) (xy 162.498805 115.300795) (xy 162.669715 115.714429)
        (xy 162.985907 116.031172) (xy 163.399242 116.202804) (xy 163.846795 116.203195) (xy 164.260429 116.032285) (xy 164.577172 115.716093)
        (xy 164.614997 115.625) (xy 165.432793 115.625) (xy 165.46089 115.693) (xy 165.805187 116.037899) (xy 166.255263 116.224787)
        (xy 166.742599 116.225212) (xy 167.193 116.03911) (xy 167.537899 115.694813) (xy 167.635104 115.460717) (xy 167.753383 115.746268)
        (xy 167.99645 115.821116) (xy 168.817566 115) (xy 169.182434 115) (xy 170.00355 115.821116) (xy 170.246617 115.746268)
        (xy 170.437308 115.212402) (xy 170.409182 114.646201) (xy 170.246617 114.253732) (xy 170.00355 114.178884) (xy 169.182434 115)
        (xy 168.817566 115) (xy 167.99645 114.178884) (xy 167.753383 114.253732) (xy 167.64383 114.560441) (xy 167.53911 114.307)
        (xy 167.229103 113.99645) (xy 168.178884 113.99645) (xy 169 114.817566) (xy 169.821116 113.99645) (xy 169.746268 113.753383)
        (xy 169.212402 113.562692) (xy 168.646201 113.590818) (xy 168.253732 113.753383) (xy 168.178884 113.99645) (xy 167.229103 113.99645)
        (xy 167.194813 113.962101) (xy 166.744737 113.775213) (xy 166.257401 113.774788) (xy 165.807 113.96089) (xy 165.462101 114.305187)
        (xy 165.433112 114.375) (xy 164.51183 114.375) (xy 164.262093 114.124828) (xy 163.995 114.013921) (xy 163.995 113.351207)
        (xy 164.063 113.32311) (xy 164.407899 112.978813) (xy 164.594787 112.528737) (xy 164.595 112.284) (xy 164.661001 112.284)
        (xy 164.754249 112.752787) (xy 165.019795 113.150206) (xy 165.417214 113.415752) (xy 165.886001 113.509) (xy 165.933999 113.509)
        (xy 166.402786 113.415752) (xy 166.800205 113.150206) (xy 166.961373 112.909) (xy 167.636793 112.909) (xy 167.66489 112.977)
        (xy 168.009187 113.321899) (xy 168.459263 113.508787) (xy 168.946599 113.509212) (xy 169.397 113.32311) (xy 169.741899 112.978813)
        (xy 169.873897 112.660926) (xy 170.020052 113.013798) (xy 170.392501 113.42663) (xy 170.894583 113.665507) (xy 171.115 113.546909)
        (xy 171.115 112.413) (xy 171.373 112.413) (xy 171.373 113.546909) (xy 171.593417 113.665507) (xy 172.095499 113.42663)
        (xy 172.467948 113.013798) (xy 172.625497 112.633416) (xy 172.506175 112.413) (xy 171.373 112.413) (xy 171.115 112.413)
        (xy 171.095 112.413) (xy 171.095 112.155) (xy 171.115 112.155) (xy 171.115 111.021091) (xy 171.373 111.021091)
        (xy 171.373 112.155) (xy 172.506175 112.155) (xy 172.625497 111.934584) (xy 172.467948 111.554202) (xy 172.095499 111.14137)
        (xy 171.593417 110.902493) (xy 171.373 111.021091) (xy 171.115 111.021091) (xy 170.894583 110.902493) (xy 170.392501 111.14137)
        (xy 170.020052 111.554202) (xy 169.873803 111.907301) (xy 169.74311 111.591) (xy 169.398813 111.246101) (xy 169.075 111.111642)
        (xy 169.075 110.541373) (xy 169.316206 110.380205) (xy 169.581752 109.982786) (xy 169.609746 109.842051) (xy 169.84737 110.341499)
        (xy 170.260202 110.713948) (xy 170.640584 110.871497) (xy 170.861 110.752175) (xy 170.861 109.619) (xy 171.119 109.619)
        (xy 171.119 110.752175) (xy 171.339416 110.871497) (xy 171.719798 110.713948) (xy 172.13263 110.341499) (xy 172.371507 109.839417)
        (xy 172.252909 109.619) (xy 171.119 109.619) (xy 170.861 109.619) (xy 170.841 109.619) (xy 170.841 109.361)
        (xy 170.861 109.361) (xy 170.861 108.227825) (xy 171.119 108.227825) (xy 171.119 109.361) (xy 172.252909 109.361)
        (xy 172.371507 109.140583) (xy 172.13263 108.638501) (xy 171.719798 108.266052) (xy 171.339416 108.108503) (xy 171.119 108.227825)
        (xy 170.861 108.227825) (xy 170.689111 108.134773) (xy 174.606939 104.216944) (xy 174.606942 104.216942) (xy 174.742425 104.014177)
        (xy 174.751599 103.968058) (xy 174.790001 103.775) (xy 174.79 103.774995) (xy 174.79 103.157654) (xy 175.913139 103.157654)
        (xy 176.033068 103.371) (xy 177.871 103.371) (xy 177.871 102.12) (xy 178.129 102.12) (xy 178.129 103.371)
        (xy 179.966932 103.371) (xy 180.086861 103.157654) (xy 180.074321 103.091077) (xy 179.817025 102.615409) (xy 179.397284 102.274412)
        (xy 178.879 102.12) (xy 178.129 102.12) (xy 177.871 102.12) (xy 177.121 102.12) (xy 176.602716 102.274412)
        (xy 176.182975 102.615409) (xy 175.925679 103.091077) (xy 175.913139 103.157654) (xy 174.79 103.157654) (xy 174.79 99.965)
        (xy 174.751599 99.771942) (xy 174.742425 99.725822) (xy 174.606942 99.523058) (xy 173.52 98.436116) (xy 173.52 97.222207)
        (xy 173.588 97.19411) (xy 173.932899 96.849813) (xy 174.119787 96.399737) (xy 174.120212 95.912401) (xy 173.93411 95.462)
        (xy 173.589813 95.117101) (xy 173.139737 94.930213) (xy 172.652401 94.929788) (xy 172.202 95.11589) (xy 171.857101 95.460187)
        (xy 171.670213 95.910263) (xy 171.669788 96.397599) (xy 171.85589 96.848) (xy 172.200187 97.192899) (xy 172.27 97.221888)
        (xy 172.27 98.695) (xy 172.317575 98.934177) (xy 172.453058 99.136942) (xy 173.54 100.223884) (xy 173.54 103.516117)
        (xy 168.754538 108.301578) (xy 168.45 108.241001) (xy 167.981213 108.334249) (xy 167.583794 108.599795) (xy 167.318248 108.997214)
        (xy 167.225 109.466001) (xy 167.225 109.513999) (xy 167.318248 109.982786) (xy 167.583794 110.380205) (xy 167.825 110.541373)
        (xy 167.825 111.430565) (xy 167.666101 111.589187) (xy 167.637112 111.659) (xy 166.961373 111.659) (xy 166.800205 111.417794)
        (xy 166.402786 111.152248) (xy 165.933999 111.059) (xy 165.886001 111.059) (xy 165.417214 111.152248) (xy 165.019795 111.417794)
        (xy 164.754249 111.815213) (xy 164.661001 112.284) (xy 164.595 112.284) (xy 164.595212 112.041401) (xy 164.40911 111.591)
        (xy 164.064813 111.246101) (xy 163.614737 111.059213) (xy 163.127401 111.058788) (xy 162.698069 111.236185) (xy 161.709 110.247116)
        (xy 161.709 108.69) (xy 162.136674 108.69) (xy 162.136674 110.29) (xy 162.166309 110.447496) (xy 162.259389 110.592146)
        (xy 162.401412 110.689186) (xy 162.57 110.723326) (xy 164.17 110.723326) (xy 164.327496 110.693691) (xy 164.472146 110.600611)
        (xy 164.569186 110.458588) (xy 164.603326 110.29) (xy 164.603326 108.69) (xy 164.573691 108.532504) (xy 164.480611 108.387854)
        (xy 164.338588 108.290814) (xy 164.17 108.256674) (xy 162.57 108.256674) (xy 162.412504 108.286309) (xy 162.267854 108.379389)
        (xy 162.170814 108.521412) (xy 162.136674 108.69) (xy 161.709 108.69) (xy 161.709 106.954884) (xy 165.605461 103.058422)
        (xy 165.91 103.118999) (xy 166.378787 103.025751) (xy 166.776206 102.760205) (xy 167.041752 102.362786) (xy 167.135 101.893999)
        (xy 167.135 101.846001) (xy 167.041752 101.377214) (xy 166.776206 100.979795) (xy 166.535 100.818627) (xy 166.535 100.397207)
        (xy 166.603 100.36911) (xy 166.947899 100.024813) (xy 167.134787 99.574737) (xy 167.135212 99.087401) (xy 166.94911 98.637)
        (xy 166.604813 98.292101) (xy 166.154737 98.105213) (xy 165.667401 98.104788) (xy 165.217 98.29089) (xy 164.872101 98.635187)
        (xy 164.685213 99.085263) (xy 164.684788 99.572599) (xy 164.87089 100.023) (xy 165.215187 100.367899) (xy 165.285 100.396888)
        (xy 165.285 100.818627) (xy 165.043794 100.979795) (xy 164.778248 101.377214) (xy 164.685 101.846001) (xy 164.685 101.893999)
        (xy 164.737613 102.158503) (xy 164.438163 102.457953) (xy 164.501752 102.362786) (xy 164.595 101.893999) (xy 164.595 101.846001)
        (xy 164.501752 101.377214) (xy 164.236206 100.979795) (xy 163.838787 100.714249) (xy 163.37 100.621001) (xy 162.901213 100.714249)
        (xy 162.503794 100.979795) (xy 162.238248 101.377214) (xy 162.145 101.846001) (xy 162.145 101.893999) (xy 162.238248 102.362786)
        (xy 162.503794 102.760205) (xy 162.901213 103.025751) (xy 163.37 103.118999) (xy 163.838787 103.025751) (xy 163.933954 102.962163)
        (xy 160.642058 106.254058) (xy 160.506575 106.456823) (xy 160.459 106.696) (xy 148.45 106.696) (xy 148.45 102.219417)
        (xy 149.923493 102.219417) (xy 150.16237 102.721499) (xy 150.575202 103.093948) (xy 150.955584 103.251497) (xy 151.176 103.132175)
        (xy 151.176 101.999) (xy 150.042091 101.999) (xy 149.923493 102.219417) (xy 148.45 102.219417) (xy 148.45 101.520583)
        (xy 149.923493 101.520583) (xy 150.042091 101.741) (xy 151.176 101.741) (xy 151.176 100.607825) (xy 151.434 100.607825)
        (xy 151.434 101.741) (xy 151.454 101.741) (xy 151.454 101.999) (xy 151.434 101.999) (xy 151.434 103.132175)
        (xy 151.654416 103.251497) (xy 152.034798 103.093948) (xy 152.44763 102.721499) (xy 152.685254 102.222051) (xy 152.713248 102.362786)
        (xy 152.978794 102.760205) (xy 153.376213 103.025751) (xy 153.845 103.118999) (xy 154.313787 103.025751) (xy 154.711206 102.760205)
        (xy 154.976752 102.362786) (xy 155.07 101.893999) (xy 155.07 101.846001) (xy 154.976752 101.377214) (xy 154.711206 100.979795)
        (xy 154.313787 100.714249) (xy 153.845 100.621001) (xy 153.376213 100.714249) (xy 152.978794 100.979795) (xy 152.713248 101.377214)
        (xy 152.685254 101.517949) (xy 152.44763 101.018501) (xy 152.034798 100.646052) (xy 151.654416 100.488503) (xy 151.434 100.607825)
        (xy 151.176 100.607825) (xy 150.955584 100.488503) (xy 150.575202 100.646052) (xy 150.16237 101.018501) (xy 149.923493 101.520583)
        (xy 148.45 101.520583) (xy 148.45 97.79355) (xy 151.793884 97.79355) (xy 151.868732 98.036617) (xy 152.402598 98.227308)
        (xy 152.968799 98.199182) (xy 153.361268 98.036617) (xy 153.436116 97.79355) (xy 152.615 96.972434) (xy 151.793884 97.79355)
        (xy 148.45 97.79355) (xy 148.45 96.577598) (xy 151.177692 96.577598) (xy 151.205818 97.143799) (xy 151.368383 97.536268)
        (xy 151.61145 97.611116) (xy 152.432566 96.79) (xy 152.797434 96.79) (xy 153.61855 97.611116) (xy 153.861617 97.536268)
        (xy 153.97117 97.229559) (xy 154.07589 97.483) (xy 154.420187 97.827899) (xy 154.870263 98.014787) (xy 155.357599 98.015212)
        (xy 155.808 97.82911) (xy 156.152899 97.484813) (xy 156.181888 97.415) (xy 156.571265 97.415) (xy 156.61589 97.523)
        (xy 156.960187 97.867899) (xy 157.410263 98.054787) (xy 157.897599 98.055212) (xy 158.348 97.86911) (xy 158.692899 97.524813)
        (xy 158.721888 97.455) (xy 160.155 97.455) (xy 160.394177 97.407425) (xy 160.498107 97.337981) (xy 160.83 97.403999)
        (xy 161.298787 97.310751) (xy 161.696206 97.045205) (xy 161.87341 96.78) (xy 166.921116 96.78) (xy 166.941116 96.8)
        (xy 164.005 96.8) (xy 163.765822 96.847575) (xy 163.563058 96.983058) (xy 162.476116 98.07) (xy 161.897207 98.07)
        (xy 161.86911 98.002) (xy 161.524813 97.657101) (xy 161.074737 97.470213) (xy 160.587401 97.469788) (xy 160.137 97.65589)
        (xy 159.792101 98.000187) (xy 159.605213 98.450263) (xy 159.604991 98.705) (xy 158.722207 98.705) (xy 158.69411 98.637)
        (xy 158.349813 98.292101) (xy 157.899737 98.105213) (xy 157.412401 98.104788) (xy 156.962 98.29089) (xy 156.617101 98.635187)
        (xy 156.430213 99.085263) (xy 156.429788 99.572599) (xy 156.458655 99.642461) (xy 155.943058 100.158058) (xy 155.807575 100.360823)
        (xy 155.76 100.6) (xy 155.76 100.818627) (xy 155.518794 100.979795) (xy 155.253248 101.377214) (xy 155.16 101.846001)
        (xy 155.16 101.893999) (xy 155.253248 102.362786) (xy 155.518794 102.760205) (xy 155.916213 103.025751) (xy 156.385 103.118999)
        (xy 156.853787 103.025751) (xy 157.251206 102.760205) (xy 157.516752 102.362786) (xy 157.61 101.893999) (xy 157.61 101.846001)
        (xy 157.516752 101.377214) (xy 157.311479 101.07) (xy 157.691674 101.07) (xy 157.691674 102.67) (xy 157.721309 102.827496)
        (xy 157.814389 102.972146) (xy 157.956412 103.069186) (xy 158.125 103.103326) (xy 159.725 103.103326) (xy 159.882496 103.073691)
        (xy 160.027146 102.980611) (xy 160.124186 102.838588) (xy 160.158326 102.67) (xy 160.158326 101.07) (xy 160.128691 100.912504)
        (xy 160.035611 100.767854) (xy 159.893588 100.670814) (xy 159.725 100.636674) (xy 158.125 100.636674) (xy 157.967504 100.666309)
        (xy 157.822854 100.759389) (xy 157.725814 100.901412) (xy 157.691674 101.07) (xy 157.311479 101.07) (xy 157.251206 100.979795)
        (xy 157.034132 100.834752) (xy 157.342313 100.526571) (xy 157.410263 100.554787) (xy 157.897599 100.555212) (xy 158.348 100.36911)
        (xy 158.692899 100.024813) (xy 158.721888 99.955) (xy 160.195 99.955) (xy 160.434177 99.907425) (xy 160.480673 99.876357)
        (xy 160.585263 99.919787) (xy 161.072599 99.920212) (xy 161.523 99.73411) (xy 161.867899 99.389813) (xy 161.896888 99.32)
        (xy 162.735 99.32) (xy 162.974177 99.272425) (xy 163.176942 99.136942) (xy 164.263884 98.05) (xy 166.921116 98.05)
        (xy 167.825 98.953884) (xy 167.825 100.818627) (xy 167.583794 100.979795) (xy 167.318248 101.377214) (xy 167.225 101.846001)
        (xy 167.225 101.893999) (xy 167.318248 102.362786) (xy 167.583794 102.760205) (xy 167.981213 103.025751) (xy 168.45 103.118999)
        (xy 168.918787 103.025751) (xy 169.316206 102.760205) (xy 169.581752 102.362786) (xy 169.675 101.893999) (xy 169.675 101.846001)
        (xy 169.765 101.846001) (xy 169.765 101.893999) (xy 169.858248 102.362786) (xy 170.123794 102.760205) (xy 170.521213 103.025751)
        (xy 170.99 103.118999) (xy 171.458787 103.025751) (xy 171.856206 102.760205) (xy 172.121752 102.362786) (xy 172.215 101.893999)
        (xy 172.215 101.846001) (xy 172.121752 101.377214) (xy 171.856206 100.979795) (xy 171.458787 100.714249) (xy 170.99 100.621001)
        (xy 170.521213 100.714249) (xy 170.123794 100.979795) (xy 169.858248 101.377214) (xy 169.765 101.846001) (xy 169.675 101.846001)
        (xy 169.581752 101.377214) (xy 169.316206 100.979795) (xy 169.075 100.818627) (xy 169.075 98.933883) (xy 169.278056 99.136939)
        (xy 169.278058 99.136942) (xy 169.480823 99.272425) (xy 169.72 99.32) (xy 170.731116 99.32) (xy 172.27 100.858884)
        (xy 172.27 102.881116) (xy 171.366116 103.785) (xy 167.815 103.785) (xy 167.575823 103.832575) (xy 167.373058 103.968058)
        (xy 165.468058 105.873058) (xy 165.332575 106.075823) (xy 165.285 106.315) (xy 165.285 108.438627) (xy 165.043794 108.599795)
        (xy 164.778248 108.997214) (xy 164.685 109.466001) (xy 164.685 109.513999) (xy 164.778248 109.982786) (xy 165.043794 110.380205)
        (xy 165.441213 110.645751) (xy 165.91 110.738999) (xy 166.378787 110.645751) (xy 166.776206 110.380205) (xy 167.041752 109.982786)
        (xy 167.135 109.513999) (xy 167.135 109.466001) (xy 167.041752 108.997214) (xy 166.776206 108.599795) (xy 166.535 108.438627)
        (xy 166.535 106.573884) (xy 168.073884 105.035) (xy 171.625 105.035) (xy 171.864177 104.987425) (xy 172.066942 104.851942)
        (xy 173.336942 103.581942) (xy 173.472425 103.379178) (xy 173.52 103.14) (xy 173.52 100.6) (xy 173.472425 100.360823)
        (xy 173.336942 100.158058) (xy 171.431942 98.253058) (xy 171.229177 98.117575) (xy 170.99 98.07) (xy 169.978883 98.07)
        (xy 167.621942 95.713058) (xy 167.419177 95.577575) (xy 167.18 95.53) (xy 161.87341 95.53) (xy 161.696206 95.264795)
        (xy 161.298787 94.999249) (xy 160.83 94.906001) (xy 160.361213 94.999249) (xy 159.963794 95.264795) (xy 159.698248 95.662214)
        (xy 159.605 96.131001) (xy 159.605 96.178999) (xy 159.610172 96.205) (xy 158.722207 96.205) (xy 158.69411 96.137)
        (xy 158.349813 95.792101) (xy 157.899737 95.605213) (xy 157.412401 95.604788) (xy 156.962 95.79089) (xy 156.617101 96.135187)
        (xy 156.604722 96.165) (xy 156.182207 96.165) (xy 156.15411 96.097) (xy 155.809813 95.752101) (xy 155.359737 95.565213)
        (xy 154.872401 95.564788) (xy 154.422 95.75089) (xy 154.077101 96.095187) (xy 153.979896 96.329283) (xy 153.861617 96.043732)
        (xy 153.61855 95.968884) (xy 152.797434 96.79) (xy 152.432566 96.79) (xy 151.61145 95.968884) (xy 151.368383 96.043732)
        (xy 151.177692 96.577598) (xy 148.45 96.577598) (xy 148.45 95.78645) (xy 151.793884 95.78645) (xy 152.615 96.607566)
        (xy 153.436116 95.78645) (xy 153.361268 95.543383) (xy 152.827402 95.352692) (xy 152.261201 95.380818) (xy 151.868732 95.543383)
        (xy 151.793884 95.78645) (xy 148.45 95.78645) (xy 148.45 93.00355) (xy 151.678884 93.00355) (xy 151.753732 93.246617)
        (xy 152.287598 93.437308) (xy 152.853799 93.409182) (xy 153.246268 93.246617) (xy 153.321116 93.00355) (xy 152.5 92.182434)
        (xy 151.678884 93.00355) (xy 148.45 93.00355) (xy 148.45 91.787598) (xy 151.062692 91.787598) (xy 151.090818 92.353799)
        (xy 151.253383 92.746268) (xy 151.49645 92.821116) (xy 152.317566 92) (xy 152.682434 92) (xy 153.50355 92.821116)
        (xy 153.746617 92.746268) (xy 153.870471 92.399521) (xy 153.884249 92.468787) (xy 154.149795 92.866206) (xy 154.547214 93.131752)
        (xy 155.016001 93.225) (xy 155.063999 93.225) (xy 155.532786 93.131752) (xy 155.930205 92.866206) (xy 156.091373 92.625)
        (xy 163 92.625) (xy 163.239177 92.577425) (xy 163.441942 92.441942) (xy 166 89.883884) (xy 169.77 93.653883)
        (xy 169.77 95.087793) (xy 169.702 95.11589) (xy 169.357101 95.460187) (xy 169.170213 95.910263) (xy 169.169788 96.397599)
        (xy 169.35589 96.848) (xy 169.700187 97.192899) (xy 170.150263 97.379787) (xy 170.637599 97.380212) (xy 171.088 97.19411)
        (xy 171.432899 96.849813) (xy 171.619787 96.399737) (xy 171.620212 95.912401) (xy 171.43411 95.462) (xy 171.089813 95.117101)
        (xy 171.02 95.088112) (xy 171.02 93.395005) (xy 171.020001 93.395) (xy 170.972425 93.155823) (xy 170.953873 93.128058)
        (xy 170.836942 92.953058) (xy 170.836939 92.953056) (xy 166.55 88.666116) (xy 166.55 84.09) (xy 167.216001 84.09)
        (xy 167.294024 84.482251) (xy 167.516217 84.814784) (xy 167.84 85.03113) (xy 167.84 85.965) (xy 167.887575 86.204177)
        (xy 168.023058 86.406942) (xy 175.445 93.828884) (xy 175.445 98.28659) (xy 175.179795 98.463794) (xy 174.914249 98.861213)
        (xy 174.821001 99.33) (xy 174.914249 99.798787) (xy 175.179795 100.196206) (xy 175.577214 100.461752) (xy 176.046001 100.555)
        (xy 176.093999 100.555) (xy 176.562786 100.461752) (xy 176.960205 100.196206) (xy 177.121373 99.955) (xy 177.324529 99.955)
        (xy 177.36089 100.043) (xy 177.705187 100.387899) (xy 178.155263 100.574787) (xy 178.642599 100.575212) (xy 179.093 100.38911)
        (xy 179.437899 100.044813) (xy 179.624787 99.594737) (xy 179.625212 99.107401) (xy 179.43911 98.657) (xy 179.094813 98.312101)
        (xy 178.860717 98.214896) (xy 179.146268 98.096617) (xy 179.221116 97.85355) (xy 178.4 97.032434) (xy 177.578884 97.85355)
        (xy 177.653732 98.096617) (xy 177.960441 98.20617) (xy 177.707 98.31089) (xy 177.362101 98.655187) (xy 177.341417 98.705)
        (xy 177.121373 98.705) (xy 176.960205 98.463794) (xy 176.695 98.28659) (xy 176.695 96.637598) (xy 176.962692 96.637598)
        (xy 176.990818 97.203799) (xy 177.153383 97.596268) (xy 177.39645 97.671116) (xy 178.217566 96.85) (xy 178.582434 96.85)
        (xy 179.40355 97.671116) (xy 179.646617 97.596268) (xy 179.837308 97.062402) (xy 179.809182 96.496201) (xy 179.646617 96.103732)
        (xy 179.40355 96.028884) (xy 178.582434 96.85) (xy 178.217566 96.85) (xy 177.39645 96.028884) (xy 177.153383 96.103732)
        (xy 176.962692 96.637598) (xy 176.695 96.637598) (xy 176.695 95.84645) (xy 177.578884 95.84645) (xy 178.4 96.667566)
        (xy 179.221116 95.84645) (xy 179.146268 95.603383) (xy 178.612402 95.412692) (xy 178.046201 95.440818) (xy 177.653732 95.603383)
        (xy 177.578884 95.84645) (xy 176.695 95.84645) (xy 176.695 93.57) (xy 176.668606 93.437308) (xy 176.647425 93.330822)
        (xy 176.511942 93.128058) (xy 169.09 85.706116) (xy 169.09 85.03113) (xy 169.413783 84.814784) (xy 169.635976 84.482251)
        (xy 169.713999 84.09) (xy 169.635976 83.697749) (xy 169.413783 83.365216) (xy 169.08125 83.143023) (xy 168.688999 83.065)
        (xy 168.241001 83.065) (xy 167.84875 83.143023) (xy 167.516217 83.365216) (xy 167.294024 83.697749) (xy 167.216001 84.09)
        (xy 166.55 84.09) (xy 166.55 82.962287) (xy 175.075 82.962287) (xy 175.075 85.037713) (xy 175.145411 85.391695)
        (xy 175.345926 85.691787) (xy 175.646018 85.892302) (xy 176 85.962713) (xy 176.353982 85.892302) (xy 176.654074 85.691787)
        (xy 176.854589 85.391695) (xy 176.925 85.037713) (xy 176.925 82.962287) (xy 176.854589 82.608305) (xy 176.654074 82.308213)
        (xy 176.353982 82.107698) (xy 176 82.037287) (xy 175.646018 82.107698) (xy 175.345926 82.308213) (xy 175.145411 82.608305)
        (xy 175.075 82.962287) (xy 166.55 82.962287) (xy 166.55 82.354876) (xy 166.669865 82.274784) (xy 166.892058 81.942251)
        (xy 166.970081 81.55) (xy 166.892058 81.157749) (xy 166.669865 80.825216) (xy 166.337332 80.603023) (xy 165.945081 80.525)
        (xy 165.904919 80.525) (xy 165.512668 80.603023) (xy 165.180135 80.825216) (xy 164.957942 81.157749) (xy 164.879919 81.55)
        (xy 164.957942 81.942251) (xy 165.180135 82.274784) (xy 165.3 82.354876) (xy 165.3 88.816116) (xy 162.741116 91.375)
        (xy 156.091373 91.375) (xy 155.930205 91.133794) (xy 155.532786 90.868248) (xy 155.063999 90.775) (xy 155.016001 90.775)
        (xy 154.547214 90.868248) (xy 154.149795 91.133794) (xy 153.884249 91.531213) (xy 153.876886 91.56823) (xy 153.746617 91.253732)
        (xy 153.50355 91.178884) (xy 152.682434 92) (xy 152.317566 92) (xy 151.49645 91.178884) (xy 151.253383 91.253732)
        (xy 151.062692 91.787598) (xy 148.45 91.787598) (xy 148.45 90.99645) (xy 151.678884 90.99645) (xy 152.5 91.817566)
        (xy 153.321116 90.99645) (xy 153.246268 90.753383) (xy 152.712402 90.562692) (xy 152.146201 90.590818) (xy 151.753732 90.753383)
        (xy 151.678884 90.99645) (xy 148.45 90.99645) (xy 148.45 82.962287) (xy 155.075 82.962287) (xy 155.075 85.037713)
        (xy 155.145411 85.391695) (xy 155.345926 85.691787) (xy 155.646018 85.892302) (xy 156 85.962713) (xy 156.353982 85.892302)
        (xy 156.654074 85.691787) (xy 156.854589 85.391695) (xy 156.925 85.037713) (xy 156.925 84.407979) (xy 162.201989 84.407979)
        (xy 162.32363 84.701678) (xy 162.638501 85.061285) (xy 163.06702 85.273023) (xy 163.256 85.151951) (xy 163.256 84.219)
        (xy 163.514 84.219) (xy 163.514 85.151951) (xy 163.70298 85.273023) (xy 164.131499 85.061285) (xy 164.44637 84.701678)
        (xy 164.568011 84.407979) (xy 164.445936 84.219) (xy 163.514 84.219) (xy 163.256 84.219) (xy 162.324064 84.219)
        (xy 162.201989 84.407979) (xy 156.925 84.407979) (xy 156.925 83.772021) (xy 162.201989 83.772021) (xy 162.324064 83.961)
        (xy 163.256 83.961) (xy 163.256 83.028049) (xy 163.514 83.028049) (xy 163.514 83.961) (xy 164.445936 83.961)
        (xy 164.568011 83.772021) (xy 164.44637 83.478322) (xy 164.131499 83.118715) (xy 163.70298 82.906977) (xy 163.514 83.028049)
        (xy 163.256 83.028049) (xy 163.06702 82.906977) (xy 162.638501 83.118715) (xy 162.32363 83.478322) (xy 162.201989 83.772021)
        (xy 156.925 83.772021) (xy 156.925 82.962287) (xy 156.854589 82.608305) (xy 156.654074 82.308213) (xy 156.353982 82.107698)
        (xy 156 82.037287) (xy 155.646018 82.107698) (xy 155.345926 82.308213) (xy 155.145411 82.608305) (xy 155.075 82.962287)
        (xy 148.45 82.962287) (xy 148.45 76.480246) (xy 149.57458 76.480246) (xy 149.942986 77.371858) (xy 150.624554 78.054617)
        (xy 151.515521 78.424579) (xy 152.480246 78.42542) (xy 153.371858 78.057014) (xy 154.054617 77.375446) (xy 154.424579 76.484479)
        (xy 154.42542 75.519754) (xy 154.057014 74.628142) (xy 153.375446 73.945383) (xy 152.484479 73.575421) (xy 151.519754 73.57458)
        (xy 150.628142 73.942986) (xy 149.945383 74.624554) (xy 149.575421 75.515521) (xy 149.57458 76.480246) (xy 148.45 76.480246)
        (xy 148.45 72.825) (xy 160.577381 72.825) (xy 160.577381 77.075) (xy 171.422619 77.075) (xy 171.422619 76.480246)
        (xy 177.07458 76.480246) (xy 177.442986 77.371858) (xy 178.124554 78.054617) (xy 179.015521 78.424579) (xy 179.980246 78.42542)
        (xy 180.871858 78.057014) (xy 181.554617 77.375446) (xy 181.924579 76.484479) (xy 181.92542 75.519754) (xy 181.557014 74.628142)
        (xy 180.875446 73.945383) (xy 179.984479 73.575421) (xy 179.019754 73.57458) (xy 178.128142 73.942986) (xy 177.445383 74.624554)
        (xy 177.075421 75.515521) (xy 177.07458 76.480246) (xy 171.422619 76.480246) (xy 171.422619 72.825) (xy 160.577381 72.825)
        (xy 148.45 72.825) (xy 148.45 72.45) (xy 183.55 72.45)
      )
    )
  )
)
