EESchema Schematic File Version 4
LIBS:pir-sensor-cache
EELAYER 26 0
EELAYER END
$Descr A4 11693 8268
encoding utf-8
Sheet 1 1
Title "PIR Sensor"
Date ""
Rev ""
Comp ""
Comment1 ""
Comment2 ""
Comment3 ""
Comment4 ""
$EndDescr
$Comp
L pir-sensor-rescue:LM741-RESCUE-pir-sensor U1
U 1 1 58A9D8B6
P 4850 2900
F 0 "U1" H 4850 3150 50  0000 L CNN
F 1 "LM741" H 4850 3050 50  0000 L CNN
F 2 "Housings_DIP:DIP-8_W7.62mm" H 4900 2950 50  0001 C CNN
F 3 "" H 5000 3050 50  0000 C CNN
	1    4850 2900
	1    0    0    -1  
$EndComp
$Comp
L power:VCC #PWR01
U 1 1 58A9DA25
P 1300 1150
F 0 "#PWR01" H 1300 1000 50  0001 C CNN
F 1 "VCC" H 1300 1300 50  0000 C CNN
F 2 "" H 1300 1150 50  0000 C CNN
F 3 "" H 1300 1150 50  0000 C CNN
	1    1300 1150
	1    0    0    -1  
$EndComp
$Comp
L power:GND #PWR02
U 1 1 58A9DA3D
P 1750 1400
F 0 "#PWR02" H 1750 1150 50  0001 C CNN
F 1 "GND" H 1750 1250 50  0000 C CNN
F 2 "" H 1750 1400 50  0000 C CNN
F 3 "" H 1750 1400 50  0000 C CNN
	1    1750 1400
	1    0    0    -1  
$EndComp
$Comp
L power:PWR_FLAG #FLG03
U 1 1 58A9DA55
P 1750 1150
F 0 "#FLG03" H 1750 1245 50  0001 C CNN
F 1 "PWR_FLAG" H 1750 1330 50  0000 C CNN
F 2 "" H 1750 1150 50  0000 C CNN
F 3 "" H 1750 1150 50  0000 C CNN
	1    1750 1150
	1    0    0    -1  
$EndComp
$Comp
L power:PWR_FLAG #FLG04
U 1 1 58A9DA71
P 1300 1400
F 0 "#FLG04" H 1300 1495 50  0001 C CNN
F 1 "PWR_FLAG" H 1300 1580 50  0000 C CNN
F 2 "" H 1300 1400 50  0000 C CNN
F 3 "" H 1300 1400 50  0000 C CNN
	1    1300 1400
	-1   0    0    1   
$EndComp
$Comp
L pir-sensor-rescue:CONN_01X03 P1
U 1 1 58A9DAB2
P 1300 2950
F 0 "P1" H 1300 3150 50  0000 C CNN
F 1 "CONN_01X03" V 1400 2950 50  0000 C CNN
F 2 "Connectors:PINHEAD1-3" H 1300 2950 50  0001 C CNN
F 3 "" H 1300 2950 50  0000 C CNN
	1    1300 2950
	-1   0    0    1   
$EndComp
$Comp
L pir-sensor-rescue:CONN_01X03 P2
U 1 1 58A9DB97
P 1300 3650
F 0 "P2" H 1300 3850 50  0000 C CNN
F 1 "CONN_01X03" V 1400 3650 50  0000 C CNN
F 2 "Connectors:PINHEAD1-3" H 1300 3650 50  0001 C CNN
F 3 "" H 1300 3650 50  0000 C CNN
	1    1300 3650
	-1   0    0    1   
$EndComp
$Comp
L lhi878-rf:LHI878-RF PIR1
U 1 1 58A9DEC7
P 3000 1300
F 0 "PIR1" H 3000 1600 60  0000 C CNN
F 1 "LHI878-RF" H 3000 1700 60  0000 C CNN
F 2 "TO_SOT_Packages_THT:TO-39-3" H 3000 1300 60  0001 C CNN
F 3 "http://cdn-reichelt.de/documents/datenblatt/A500/LHI878RF%23PE.pdf" H 3000 1300 60  0001 C CNN
	1    3000 1300
	1    0    0    -1  
$EndComp
$Comp
L pir-sensor-rescue:ATTINY85-P IC1
U 1 1 58A9E380
P 8650 2950
F 0 "IC1" H 7500 3350 50  0000 C CNN
F 1 "ATTINY85-P" H 9650 2550 50  0000 C CNN
F 2 "Housings_DIP:DIP-8_W7.62mm" H 9650 2950 50  0000 C CIN
F 3 "" H 8650 2950 50  0000 C CNN
	1    8650 2950
	1    0    0    -1  
$EndComp
$Comp
L power:GND #PWR05
U 1 1 58A9E415
P 10250 3350
F 0 "#PWR05" H 10250 3100 50  0001 C CNN
F 1 "GND" H 10250 3200 50  0000 C CNN
F 2 "" H 10250 3350 50  0000 C CNN
F 3 "" H 10250 3350 50  0000 C CNN
	1    10250 3350
	1    0    0    -1  
$EndComp
NoConn ~ 7300 3200
NoConn ~ 7300 3100
$Comp
L power:VCC #PWR06
U 1 1 58A9E574
P 10250 2550
F 0 "#PWR06" H 10250 2400 50  0001 C CNN
F 1 "VCC" H 10250 2700 50  0000 C CNN
F 2 "" H 10250 2550 50  0000 C CNN
F 3 "" H 10250 2550 50  0000 C CNN
	1    10250 2550
	1    0    0    -1  
$EndComp
$Comp
L pir-sensor-rescue:R R4
U 1 1 58A9E6CA
P 6650 3650
F 0 "R4" V 6730 3650 50  0000 C CNN
F 1 "2.2k" V 6650 3650 50  0000 C CNN
F 2 "Resistors_THT:R_Axial_DIN0204_L3.6mm_D1.6mm_P2.54mm_Vertical" V 6580 3650 50  0001 C CNN
F 3 "" H 6650 3650 50  0000 C CNN
	1    6650 3650
	1    0    0    -1  
$EndComp
$Comp
L pir-sensor-rescue:R R5
U 1 1 58A9E711
P 6850 3650
F 0 "R5" V 6930 3650 50  0000 C CNN
F 1 "4.7k" V 6850 3650 50  0000 C CNN
F 2 "Resistors_THT:R_Axial_DIN0204_L3.6mm_D1.6mm_P2.54mm_Vertical" V 6780 3650 50  0001 C CNN
F 3 "" H 6850 3650 50  0000 C CNN
	1    6850 3650
	1    0    0    -1  
$EndComp
$Comp
L pir-sensor-rescue:R R6
U 1 1 58A9E73E
P 7050 3650
F 0 "R6" V 7130 3650 50  0000 C CNN
F 1 "4.7k" V 7050 3650 50  0000 C CNN
F 2 "Resistors_THT:R_Axial_DIN0204_L3.6mm_D1.6mm_P2.54mm_Vertical" V 6980 3650 50  0001 C CNN
F 3 "" H 7050 3650 50  0000 C CNN
	1    7050 3650
	1    0    0    -1  
$EndComp
$Comp
L pir-sensor-rescue:LED D1
U 1 1 58A9EA67
P 6650 4100
F 0 "D1" H 6650 4200 50  0000 C CNN
F 1 "LED" H 6650 4000 50  0000 C CNN
F 2 "LEDs:LED_D5.0mm" H 6650 4100 50  0001 C CNN
F 3 "" H 6650 4100 50  0000 C CNN
	1    6650 4100
	0    -1   -1   0   
$EndComp
$Comp
L power:GND #PWR07
U 1 1 58A9EAA2
P 6650 4500
F 0 "#PWR07" H 6650 4250 50  0001 C CNN
F 1 "GND" H 6650 4350 50  0000 C CNN
F 2 "" H 6650 4500 50  0000 C CNN
F 3 "" H 6650 4500 50  0000 C CNN
	1    6650 4500
	1    0    0    -1  
$EndComp
$Comp
L power:GND #PWR08
U 1 1 58A9EDA3
P 4750 3300
F 0 "#PWR08" H 4750 3050 50  0001 C CNN
F 1 "GND" H 4750 3150 50  0000 C CNN
F 2 "" H 4750 3300 50  0000 C CNN
F 3 "" H 4750 3300 50  0000 C CNN
	1    4750 3300
	1    0    0    -1  
$EndComp
$Comp
L power:VCC #PWR09
U 1 1 58A9F17B
P 5500 1000
F 0 "#PWR09" H 5500 850 50  0001 C CNN
F 1 "VCC" H 5500 1150 50  0000 C CNN
F 2 "" H 5500 1000 50  0000 C CNN
F 3 "" H 5500 1000 50  0000 C CNN
	1    5500 1000
	1    0    0    -1  
$EndComp
$Comp
L pir-sensor-rescue:C C1
U 1 1 58A9F1A1
P 6200 1350
F 0 "C1" H 6225 1450 50  0000 L CNN
F 1 "33u" H 6225 1250 50  0000 L CNN
F 2 "Capacitors_THT:C_Disc_D3.0mm_W1.6mm_P2.50mm" H 6238 1200 50  0001 C CNN
F 3 "" H 6200 1350 50  0000 C CNN
	1    6200 1350
	1    0    0    -1  
$EndComp
$Comp
L pir-sensor-rescue:R R1
U 1 1 58A9F1F4
P 5850 1100
F 0 "R1" V 5930 1100 50  0000 C CNN
F 1 "120R" V 5850 1100 50  0000 C CNN
F 2 "Resistors_THT:R_Axial_DIN0204_L3.6mm_D1.6mm_P2.54mm_Vertical" V 5780 1100 50  0001 C CNN
F 3 "" H 5850 1100 50  0000 C CNN
	1    5850 1100
	0    1    1    0   
$EndComp
$Comp
L power:GND #PWR010
U 1 1 58A9F2AE
P 6200 1700
F 0 "#PWR010" H 6200 1450 50  0001 C CNN
F 1 "GND" H 6200 1550 50  0000 C CNN
F 2 "" H 6200 1700 50  0000 C CNN
F 3 "" H 6200 1700 50  0000 C CNN
	1    6200 1700
	1    0    0    -1  
$EndComp
$Comp
L power:VAA #PWR011
U 1 1 58A9F335
P 6450 950
F 0 "#PWR011" H 6450 800 50  0001 C CNN
F 1 "VAA" H 6450 1100 50  0000 C CNN
F 2 "" H 6450 950 50  0000 C CNN
F 3 "" H 6450 950 50  0000 C CNN
	1    6450 950 
	1    0    0    -1  
$EndComp
$Comp
L power:PWR_FLAG #FLG012
U 1 1 58A9F384
P 6800 950
F 0 "#FLG012" H 6800 1045 50  0001 C CNN
F 1 "PWR_FLAG" H 6800 1130 50  0000 C CNN
F 2 "" H 6800 950 50  0000 C CNN
F 3 "" H 6800 950 50  0000 C CNN
	1    6800 950 
	1    0    0    -1  
$EndComp
$Comp
L power:VAA #PWR013
U 1 1 58A9F7B6
P 4750 2550
F 0 "#PWR013" H 4750 2400 50  0001 C CNN
F 1 "VAA" H 4750 2700 50  0000 C CNN
F 2 "" H 4750 2550 50  0000 C CNN
F 3 "" H 4750 2550 50  0000 C CNN
	1    4750 2550
	1    0    0    -1  
$EndComp
$Comp
L power:VAA #PWR014
U 1 1 58A9F969
P 2600 1200
F 0 "#PWR014" H 2600 1050 50  0001 C CNN
F 1 "VAA" H 2600 1350 50  0000 C CNN
F 2 "" H 2600 1200 50  0000 C CNN
F 3 "" H 2600 1200 50  0000 C CNN
	1    2600 1200
	1    0    0    -1  
$EndComp
$Comp
L power:GND #PWR015
U 1 1 58A9FA7F
P 3550 2050
F 0 "#PWR015" H 3550 1800 50  0001 C CNN
F 1 "GND" H 3550 1900 50  0000 C CNN
F 2 "" H 3550 2050 50  0000 C CNN
F 3 "" H 3550 2050 50  0000 C CNN
	1    3550 2050
	1    0    0    -1  
$EndComp
$Comp
L pir-sensor-rescue:R R7
U 1 1 58A9FF92
P 4750 3700
F 0 "R7" V 4830 3700 50  0000 C CNN
F 1 "3M" V 4750 3700 50  0000 C CNN
F 2 "Resistors_THT:R_Axial_DIN0207_L6.3mm_D2.5mm_P2.54mm_Vertical" V 4680 3700 50  0001 C CNN
F 3 "" H 4750 3700 50  0000 C CNN
	1    4750 3700
	0    1    1    0   
$EndComp
$Comp
L pir-sensor-rescue:C C3
U 1 1 58A9FFD7
P 4750 3950
F 0 "C3" H 4775 4050 50  0000 L CNN
F 1 "1n" H 4775 3850 50  0000 L CNN
F 2 "Capacitors_THT:C_Disc_D3.0mm_W1.6mm_P2.50mm" H 4788 3800 50  0001 C CNN
F 3 "" H 4750 3950 50  0000 C CNN
	1    4750 3950
	0    1    1    0   
$EndComp
Wire Wire Line
	1300 1150 1300 1400
Wire Wire Line
	1750 1150 1750 1400
Wire Wire Line
	7300 3000 5900 3000
Wire Wire Line
	5900 3000 5900 2900
Wire Wire Line
	5900 2900 5350 2900
Wire Wire Line
	10250 3350 10250 3200
Wire Wire Line
	10250 3200 10000 3200
Wire Wire Line
	10250 2550 10250 2700
Wire Wire Line
	10250 2700 10000 2700
Wire Wire Line
	7300 2700 6650 2700
Wire Wire Line
	6650 2700 6650 3500
Wire Wire Line
	7300 2800 6850 2800
Wire Wire Line
	6850 2800 6850 3500
Wire Wire Line
	7300 2900 7050 2900
Wire Wire Line
	7050 2900 7050 3500
Wire Wire Line
	6650 4500 6650 4250
Wire Wire Line
	6650 3950 6650 3800
Wire Wire Line
	4750 3300 4750 3200
Wire Wire Line
	5500 1000 5500 1100
Wire Wire Line
	5500 1100 5700 1100
Wire Wire Line
	6000 1100 6200 1100
Wire Wire Line
	6200 1100 6200 1200
Wire Wire Line
	6200 1700 6200 1500
Wire Wire Line
	6450 950  6450 1100
Connection ~ 6200 1100
Wire Wire Line
	6800 1100 6800 950 
Connection ~ 6450 1100
Wire Wire Line
	4750 2550 4750 2600
Wire Wire Line
	2300 1750 2600 1750
Wire Wire Line
	2850 1750 2850 1650
Wire Wire Line
	3150 1750 3150 1650
Wire Wire Line
	4900 3950 5350 3950
Wire Wire Line
	5350 3950 5350 3700
Connection ~ 5350 2900
Wire Wire Line
	4900 3700 5350 3700
Connection ~ 5350 3700
Wire Wire Line
	4600 3950 4250 3950
Wire Wire Line
	4250 3000 4250 3700
Wire Wire Line
	4250 3000 4550 3000
Wire Wire Line
	4600 3700 4250 3700
Connection ~ 4250 3700
NoConn ~ 4850 3200
NoConn ~ 4950 3200
$Comp
L power:GND #PWR016
U 1 1 58AA02C5
P 3800 3200
F 0 "#PWR016" H 3800 2950 50  0001 C CNN
F 1 "GND" H 3800 3050 50  0000 C CNN
F 2 "" H 3800 3200 50  0000 C CNN
F 3 "" H 3800 3200 50  0000 C CNN
	1    3800 3200
	1    0    0    -1  
$EndComp
$Comp
L pir-sensor-rescue:R R3
U 1 1 58AA02F3
P 3800 3000
F 0 "R3" V 3880 3000 50  0000 C CNN
F 1 "3M" V 3800 3000 50  0000 C CNN
F 2 "Resistors_THT:R_Axial_DIN0207_L6.3mm_D2.5mm_P2.54mm_Vertical" V 3730 3000 50  0001 C CNN
F 3 "" H 3800 3000 50  0000 C CNN
	1    3800 3000
	1    0    0    -1  
$EndComp
$Comp
L pir-sensor-rescue:R R2
U 1 1 58AA0350
P 3800 2600
F 0 "R2" V 3880 2600 50  0000 C CNN
F 1 "3M" V 3800 2600 50  0000 C CNN
F 2 "Resistors_THT:R_Axial_DIN0207_L6.3mm_D2.5mm_P2.54mm_Vertical" V 3730 2600 50  0001 C CNN
F 3 "" H 3800 2600 50  0000 C CNN
	1    3800 2600
	1    0    0    -1  
$EndComp
$Comp
L power:VAA #PWR017
U 1 1 58AA0390
P 3800 2300
F 0 "#PWR017" H 3800 2150 50  0001 C CNN
F 1 "VAA" H 3800 2450 50  0000 C CNN
F 2 "" H 3800 2300 50  0000 C CNN
F 3 "" H 3800 2300 50  0000 C CNN
	1    3800 2300
	1    0    0    -1  
$EndComp
Wire Wire Line
	3800 2300 3800 2450
Wire Wire Line
	3800 2750 3800 2800
Wire Wire Line
	3800 3150 3800 3200
Wire Wire Line
	3000 2800 3800 2800
Connection ~ 3800 2800
$Comp
L pir-sensor-rescue:C C2
U 1 1 58AA0875
P 3000 2350
F 0 "C2" H 3025 2450 50  0000 L CNN
F 1 "10n" H 3025 2250 50  0000 L CNN
F 2 "Capacitors_THT:C_Disc_D3.0mm_W1.6mm_P2.50mm" H 3038 2200 50  0001 C CNN
F 3 "" H 3000 2350 50  0000 C CNN
	1    3000 2350
	-1   0    0    1   
$EndComp
Wire Wire Line
	3000 1600 3000 2000
$Comp
L power:GND #PWR018
U 1 1 58AA16E8
P 4250 4700
F 0 "#PWR018" H 4250 4450 50  0001 C CNN
F 1 "GND" H 4250 4550 50  0000 C CNN
F 2 "" H 4250 4700 50  0000 C CNN
F 3 "" H 4250 4700 50  0000 C CNN
	1    4250 4700
	1    0    0    -1  
$EndComp
$Comp
L pir-sensor-rescue:C C4
U 1 1 58AA1C3C
P 4250 4450
F 0 "C4" H 4275 4550 50  0000 L CNN
F 1 "3.5u" H 4275 4350 50  0000 L CNN
F 2 "Capacitors_THT:C_Disc_D3.0mm_W1.6mm_P2.50mm" H 4288 4300 50  0001 C CNN
F 3 "" H 4250 4450 50  0000 C CNN
	1    4250 4450
	1    0    0    -1  
$EndComp
Wire Wire Line
	4250 4600 4250 4700
Connection ~ 4250 3950
$Comp
L pir-sensor-rescue:R R8
U 1 1 58AA3376
P 3250 2000
F 0 "R8" V 3330 2000 50  0000 C CNN
F 1 "20k" V 3250 2000 50  0000 C CNN
F 2 "Resistors_THT:R_Axial_DIN0207_L6.3mm_D2.5mm_P2.54mm_Vertical" V 3180 2000 50  0001 C CNN
F 3 "" H 3250 2000 50  0000 C CNN
	1    3250 2000
	0    1    1    0   
$EndComp
Connection ~ 2600 1750
Connection ~ 3000 2000
Wire Wire Line
	3000 2500 3000 2800
$Comp
L power:GND #PWR019
U 1 1 58AA4CB3
P 1600 3100
F 0 "#PWR019" H 1600 2850 50  0001 C CNN
F 1 "GND" H 1600 2950 50  0000 C CNN
F 2 "" H 1600 3100 50  0000 C CNN
F 3 "" H 1600 3100 50  0000 C CNN
	1    1600 3100
	1    0    0    -1  
$EndComp
Wire Wire Line
	1500 3050 1600 3050
Wire Wire Line
	1600 3050 1600 3100
$Comp
L power:GND #PWR020
U 1 1 58AA4D91
P 1600 3800
F 0 "#PWR020" H 1600 3550 50  0001 C CNN
F 1 "GND" H 1600 3650 50  0000 C CNN
F 2 "" H 1600 3800 50  0000 C CNN
F 3 "" H 1600 3800 50  0000 C CNN
	1    1600 3800
	1    0    0    -1  
$EndComp
Wire Wire Line
	1600 3800 1600 3750
Wire Wire Line
	1600 3750 1500 3750
$Comp
L power:VCC #PWR021
U 1 1 58AA4E38
P 2050 3600
F 0 "#PWR021" H 2050 3450 50  0001 C CNN
F 1 "VCC" H 2050 3750 50  0000 C CNN
F 2 "" H 2050 3600 50  0000 C CNN
F 3 "" H 2050 3600 50  0000 C CNN
	1    2050 3600
	1    0    0    -1  
$EndComp
Wire Wire Line
	2050 3600 2050 3650
Wire Wire Line
	2050 3650 1500 3650
$Comp
L power:VCC #PWR022
U 1 1 58AA4ECE
P 2050 2900
F 0 "#PWR022" H 2050 2750 50  0001 C CNN
F 1 "VCC" H 2050 3050 50  0000 C CNN
F 2 "" H 2050 2900 50  0000 C CNN
F 3 "" H 2050 2900 50  0000 C CNN
	1    2050 2900
	1    0    0    -1  
$EndComp
Wire Wire Line
	2050 2900 2050 2950
Wire Wire Line
	2050 2950 1500 2950
Wire Wire Line
	1500 2850 1650 2850
Wire Wire Line
	1650 2850 1650 2600
Wire Wire Line
	1650 2600 1850 2600
Text Label 1850 2600 0    60   ~ 0
CHAIN_IN
Wire Wire Line
	1500 3550 1600 3550
Text Label 1600 3550 0    60   ~ 0
OUTPUT
Wire Wire Line
	7050 3800 7050 3900
Wire Wire Line
	7050 3900 7350 3900
Text Label 7350 3900 0    60   ~ 0
CHAIN_IN
Wire Wire Line
	6850 3800 6850 4150
Wire Wire Line
	6850 4150 7350 4150
Text Label 7350 4150 0    60   ~ 0
OUTPUT
$Comp
L pir-sensor-rescue:R R9
U 1 1 58AA9FCD
P 2600 1500
F 0 "R9" V 2680 1500 50  0000 C CNN
F 1 "0R" V 2600 1500 50  0000 C CNN
F 2 "Resistors_THT:R_Axial_DIN0207_L6.3mm_D2.5mm_P10.16mm_Horizontal" V 2530 1500 50  0001 C CNN
F 3 "" H 2600 1500 50  0000 C CNN
	1    2600 1500
	1    0    0    -1  
$EndComp
Wire Wire Line
	2600 1200 2600 1350
$Comp
L power:VCC #PWR023
U 1 1 58AAA528
P 1100 2000
F 0 "#PWR023" H 1100 1850 50  0001 C CNN
F 1 "VCC" H 1100 2150 50  0000 C CNN
F 2 "" H 1100 2000 50  0000 C CNN
F 3 "" H 1100 2000 50  0000 C CNN
	1    1100 2000
	1    0    0    -1  
$EndComp
$Comp
L pir-sensor-rescue:C C5
U 1 1 58AAA562
P 1100 2150
F 0 "C5" H 1125 2250 50  0000 L CNN
F 1 "10u" H 1125 2050 50  0000 L CNN
F 2 "Capacitors_THT:C_Disc_D3.0mm_W1.6mm_P2.50mm" H 1138 2000 50  0001 C CNN
F 3 "" H 1100 2150 50  0000 C CNN
	1    1100 2150
	1    0    0    -1  
$EndComp
$Comp
L power:GND #PWR024
U 1 1 58AAA5AF
P 1100 2400
F 0 "#PWR024" H 1100 2150 50  0001 C CNN
F 1 "GND" H 1100 2250 50  0000 C CNN
F 2 "" H 1100 2400 50  0000 C CNN
F 3 "" H 1100 2400 50  0000 C CNN
	1    1100 2400
	1    0    0    -1  
$EndComp
Wire Wire Line
	1100 2400 1100 2300
$Comp
L pir-sensor-rescue:C C6
U 1 1 58AAA7FF
P 2300 1950
F 0 "C6" H 2325 2050 50  0000 L CNN
F 1 "10u" H 2325 1850 50  0000 L CNN
F 2 "Capacitors_THT:C_Disc_D3.0mm_W1.6mm_P2.50mm" H 2338 1800 50  0001 C CNN
F 3 "" H 2300 1950 50  0000 C CNN
	1    2300 1950
	1    0    0    -1  
$EndComp
$Comp
L power:GND #PWR025
U 1 1 58AAB071
P 2300 2200
F 0 "#PWR025" H 2300 1950 50  0001 C CNN
F 1 "GND" H 2300 2050 50  0000 C CNN
F 2 "" H 2300 2200 50  0000 C CNN
F 3 "" H 2300 2200 50  0000 C CNN
	1    2300 2200
	1    0    0    -1  
$EndComp
Wire Wire Line
	2300 2200 2300 2100
Wire Wire Line
	2300 1800 2300 1750
Wire Wire Line
	3100 2000 3000 2000
Wire Wire Line
	3150 1750 3550 1750
Wire Wire Line
	3550 1750 3550 2000
Wire Wire Line
	3550 2000 3400 2000
Wire Wire Line
	2600 1750 2600 1650
Connection ~ 3550 2000
Wire Wire Line
	6200 1100 6450 1100
Wire Wire Line
	6450 1100 6800 1100
Wire Wire Line
	5350 2900 5150 2900
Wire Wire Line
	5350 3700 5350 2900
Wire Wire Line
	4250 3700 4250 3950
Wire Wire Line
	3800 2800 3800 2850
Wire Wire Line
	3800 2800 4550 2800
Wire Wire Line
	4250 3950 4250 4300
Wire Wire Line
	2600 1750 2850 1750
Wire Wire Line
	3000 2000 3000 2200
Wire Wire Line
	3550 2000 3550 2050
$EndSCHEMATC
